Temp,RelHum,ParDis,VibrLev,Audio1,Condition
23.16,48.73,1.58,1,73.5,Mechanical Failure
25.17,49.84,1.54,1,84,Mechanical Failure
21.84,46.24,1.51,1,73.5,Mechanical Failure
23.23,50.87,1.5,1,73.5,Mechanical Failure
22.33,48.83,1.53,1,71.75,Mechanical Failure
23.54,49.36,1.52,1,70,Mechanical Failure
21.21,51.21,1.57,1,82.25,Mechanical Failure
26.25,51.57,1.57,1,70,Mechanical Failure
24.74,52.75,1.72,1,84,Mechanical Failure
25.08,48.84,1.47,1,71.75,Mechanical Failure
24.56,50.46,1.56,1,73.5,Mechanical Failure
24.15,53.84,1.45,1,73.5,Mechanical Failure
24.87,49.22,1.41,1,71.75,Mechanical Failure
24.62,48.43,1.51,1,73.5,Mechanical Failure
23.22,48.87,1.75,1,70,Mechanical Failure
25.86,50.36,1.59,1,63,Mechanical Failure
22.44,50.57,1.56,1,84,Mechanical Failure
24.88,46.57,1.72,1,71.75,Mechanical Failure
23.38,49.63,1.57,1,78.75,Mechanical Failure
26.85,51.41,1.46,1,75.25,Mechanical Failure
23.12,51.98,1.35,1,70,Mechanical Failure
26.59,50.98,1.48,1,71.75,Mechanical Failure
23.03,49.62,1.6,1,70,Mechanical Failure
23,50.64,1.45,1,71.75,Mechanical Failure
21.22,53.81,1.51,1,70,Mechanical Failure
22.86,51.09,1.69,1,73.5,Mechanical Failure
23.86,51.64,1.43,1,71.75,Mechanical Failure
25.77,52.78,1.55,1,70,Mechanical Failure
26.59,53.3,1.46,1,71.75,Mechanical Failure
24.68,50.51,1.52,1,78.75,Mechanical Failure
25.62,53.41,1.58,1,71.75,Mechanical Failure
23.31,48.17,1.43,1,71.75,Mechanical Failure
21.86,54.39,1.52,1,71.75,Mechanical Failure
24.13,51.9,1.35,1,63,Mechanical Failure
28.12,55.28,1.57,1,77,Mechanical Failure
24.98,50.7,1.6,1,61.25,Mechanical Failure
24.32,50.54,1.41,1,84,Mechanical Failure
24.63,50.47,1.54,1,73.5,Mechanical Failure
26.13,53.49,1.81,1,70,Mechanical Failure
21.76,50.98,1.5,1,63,Mechanical Failure
23.98,54.31,1.45,1,77,Mechanical Failure
26.14,53.14,1.6,1,73.5,Mechanical Failure
26.77,51.45,1.76,1,70,Mechanical Failure
22.84,53.87,1.43,1,78.75,Mechanical Failure
22.97,53.48,1.68,1,73.5,Mechanical Failure
24.05,54.86,1.63,1,71.75,Mechanical Failure
24.01,53.57,1.54,1,70,Mechanical Failure
21.51,51.34,1.58,1,84,Internal Electrical Insulation Failure
23.49,49.19,15.4,0,78.75,Internal Electrical Insulation Failure
24.05,47.81,15,0,71.75,Internal Electrical Insulation Failure
23.39,50.07,15.3,0,70,Internal Electrical Insulation Failure
25,48.94,17.8,0,71.75,Internal Electrical Insulation Failure
22.73,48.65,14.9,0,75.25,Internal Electrical Insulation Failure
24.13,53.81,16.5,0,70,Internal Electrical Insulation Failure
24.83,46.59,15.8,0,61.25,Internal Electrical Insulation Failure
24.1,48.72,14.7,0,82.25,Internal Electrical Insulation Failure
24.88,50.91,13.6,0,70,Internal Electrical Insulation Failure
25.28,52.51,15.2,0,57.75,Internal Electrical Insulation Failure
22.12,49.96,14.9,0,78.75,Internal Electrical Insulation Failure
23.75,50.33,14.3,0,17.5,Internal Electrical Insulation Failure
24.93,53.52,14.9,0,43.75,Internal Electrical Insulation Failure
20.44,50.09,16.6,0,70,Internal Electrical Insulation Failure
25.13,48.93,13.3,0,84,Internal Electrical Insulation Failure
23.97,52.97,16.3,0,71.75,Internal Electrical Insulation Failure
24.03,51.48,14.2,0,70,Internal Electrical Insulation Failure
21.85,46.18,14.3,0,63,Internal Electrical Insulation Failure
23.52,47.21,15.9,0,75.25,Internal Electrical Insulation Failure
24.06,47.87,15.8,0,84,Internal Electrical Insulation Failure
24.61,50.4,13.6,0,71.75,Internal Electrical Insulation Failure
20.42,50.5,15.1,0,73.5,Internal Electrical Insulation Failure
26.14,51.49,15.8,0,71.75,Internal Electrical Insulation Failure
21.51,53.57,14.1,0,73.5,Internal Electrical Insulation Failure
23.04,51.27,15,0,78.75,Internal Electrical Insulation Failure
23.77,48.31,14.3,0,77,Internal Electrical Insulation Failure
24.39,48.59,16.3,0,70,Internal Electrical Insulation Failure
23,52.35,15.7,0,78.75,Internal Electrical Insulation Failure
26.03,47.9,14.4,0,71.75,Internal Electrical Insulation Failure
23.12,52.55,15.2,0,66.5,Internal Electrical Insulation Failure
24.02,55.05,14,0,71.75,Internal Electrical Insulation Failure
23.63,49.98,15.3,0,84,Internal Electrical Insulation Failure
23.7,49.25,13.5,0,70,Internal Electrical Insulation Failure
25.09,49.66,14.4,0,78.75,Internal Electrical Insulation Failure
24.08,45.59,15.4,0,73.5,Internal Electrical Insulation Failure
25.67,50.64,15.6,0,75.25,Internal Electrical Insulation Failure
22.42,55.25,15.9,0,71.75,Internal Electrical Insulation Failure
21.76,46.75,14.5,0,73.5,Internal Electrical Insulation Failure
24.14,50.21,13.9,0,73.5,Internal Electrical Insulation Failure
25.53,48.46,15.5,0,71.75,Internal Electrical Insulation Failure
22.59,50.5,14.5,0,70,Internal Electrical Insulation Failure
23.26,46.11,15.6,0,63,Internal Electrical Insulation Failure
24.1,48.38,15.4,0,71.75,Internal Electrical Insulation Failure
22.82,49.25,15.3,0,70,Internal Electrical Insulation Failure
20.14,53.31,16.5,0,77,Internal Electrical Insulation Failure
25.09,48.76,14.6,0,78.75,Internal Electrical Insulation Failure
23.9,51.16,15.2,0,71.75,Internal Electrical Insulation Failure
24.75,52.55,15.7,0,75.25,Internal Electrical Insulation Failure
23.31,51.41,14.5,0,73.5,Internal Electrical Insulation Failure
27.31,49.48,14.8,0,70,Internal Electrical Insulation Failure
26.32,49.61,14,0,61.25,Internal Electrical Insulation Failure
22.81,50.22,16.5,0,70,Internal Electrical Insulation Failure
25.79,49.04,14.9,0,57.75,Internal Electrical Insulation Failure
24.49,51.19,15.1,0,78.75,Internal Electrical Insulation Failure
24.69,48.03,14.8,0,17.5,Internal Electrical Insulation Failure
22.7,51.78,14.8,0,43.75,Internal Electrical Insulation Failure
25.34,53.4,16.1,0,70,Internal Electrical Insulation Failure
24.93,53.62,15.9,0,84,Internal Electrical Insulation Failure
25.09,51.58,13.7,0,71.75,Internal Electrical Insulation Failure
22.41,55.47,16,0,70,Internal Electrical Insulation Failure
22.18,51.73,15.4,0,63,Internal Electrical Insulation Failure
25.03,48.96,15,0,75.25,Internal Electrical Insulation Failure
25.15,44.38,16.3,0,84,Internal Electrical Insulation Failure
25.14,50.69,14.9,0,71.75,Internal Electrical Insulation Failure
24.76,53.66,15,0,73.5,Internal Electrical Insulation Failure
23.63,44.54,14.3,0,71.75,Internal Electrical Insulation Failure
23.61,54.25,15.3,0,73.5,Internal Electrical Insulation Failure
23.91,48.53,15.2,0,78.75,Internal Electrical Insulation Failure
23.71,49.87,16.2,0,77,Internal Electrical Insulation Failure
24.81,52.49,15.4,0,78.75,Internal Electrical Insulation Failure
25.81,47.77,15.2,0,71.75,Internal Electrical Insulation Failure
21.45,50.71,16.1,0,66.5,Internal Electrical Insulation Failure
25.35,49.37,14.6,0,73.5,Internal Electrical Insulation Failure
24.3,49.75,14.7,0,84,Internal Electrical Insulation Failure
24.93,51.57,15.6,0,70,Internal Electrical Insulation Failure
22.57,48.1,15.6,0,78.75,Internal Electrical Insulation Failure
27.1,50.24,16.6,0,73.5,Internal Electrical Insulation Failure
23.28,49.63,16.1,0,75.25,Internal Electrical Insulation Failure
22.48,51.86,16.7,0,71.75,Internal Electrical Insulation Failure
22.93,49.96,14.7,0,73.5,Internal Electrical Insulation Failure
22.91,47.23,16.4,0,71.75,Internal Electrical Insulation Failure
25.2,51.52,16.3,0,70,Internal Electrical Insulation Failure
21.59,46.69,15.7,0,63,Internal Electrical Insulation Failure
24.27,51.97,14,0,71.75,Internal Electrical Insulation Failure
23.52,48.71,16.3,0,70,Internal Electrical Insulation Failure
22.15,45.87,15,0,77,Internal Electrical Insulation Failure
29.27,50.95,16,0,78.75,Internal Electrical Insulation Failure
25.12,48.47,15.6,0,71.75,Internal Electrical Insulation Failure
28.07,55.27,17.2,0,70,Internal Electrical Insulation Failure
23.39,53.04,13.8,0,75.25,Internal Electrical Insulation Failure
24.74,50.88,15.6,0,70,Internal Electrical Insulation Failure
20.89,49.35,13.7,0,61.25,Internal Electrical Insulation Failure
23.38,49.55,16.1,0,82.25,Internal Electrical Insulation Failure
24.78,50.98,14.7,0,70,Internal Electrical Insulation Failure
23.07,48.28,16.2,0,57.75,Internal Electrical Insulation Failure
24.42,53.06,15.1,0,78.75,Internal Electrical Insulation Failure
23.27,48.8,15.5,0,17.5,Internal Electrical Insulation Failure
25.04,46.28,15,0,43.75,Internal Electrical Insulation Failure
22.91,50.7,14.3,0,70,Internal Electrical Insulation Failure
22.01,51.88,15,0,84,Internal Electrical Insulation Failure
23.92,52.76,17.7,0,71.75,Internal Electrical Insulation Failure
24.48,53.97,14.4,0,75.25,Internal Electrical Insulation Failure
24.92,48.95,15.1,0,73.5,Internal Electrical Insulation Failure
21.67,47.9,13.8,0,71.75,Internal Electrical Insulation Failure
21.9,51.57,16.2,0,73.5,Internal Electrical Insulation Failure
23.12,49.29,14.1,0,78.75,Internal Electrical Insulation Failure
25.52,47.18,15.3,0,77,Internal Electrical Insulation Failure
22.32,51.28,15.5,0,70,Internal Electrical Insulation Failure
25.04,55.59,15,0,84,Internal Electrical Insulation Failure
22.96,52.14,14.8,0,71.75,Internal Electrical Insulation Failure
23.58,50.78,15,0,66.5,Internal Electrical Insulation Failure
25.7,53.93,13.9,0,73.5,Internal Electrical Insulation Failure
25.1,52.88,17.9,0,71.75,Internal Electrical Insulation Failure
25.21,50.88,13.4,0,84,Internal Electrical Insulation Failure
24.71,52.12,15.6,0,70,Internal Electrical Insulation Failure
20.49,53.58,15.4,0,78.75,Internal Electrical Insulation Failure
24.38,53.59,14.8,0,73.5,Internal Electrical Insulation Failure
25.41,52.41,14.9,0,71.75,Internal Electrical Insulation Failure
24.33,55.44,15.8,0,73.5,Internal Electrical Insulation Failure
24.48,49.08,15.3,0,73.5,Internal Electrical Insulation Failure
23.62,51.13,16.3,0,71.75,Internal Electrical Insulation Failure
22.82,50.34,17.4,0,63,Internal Electrical Insulation Failure
22.29,47.65,16.5,0,73.5,Internal Electrical Insulation Failure
24.88,51.93,14.8,0,71.75,Internal Electrical Insulation Failure
27.67,51.79,16.5,0,70,Internal Electrical Insulation Failure
19.19,53.93,15.1,0,77,Internal Electrical Insulation Failure
25.49,48.33,16,0,78.75,Internal Electrical Insulation Failure
24.18,51.68,14.7,0,71.75,Internal Electrical Insulation Failure
23.12,51.64,14.8,0,70,Internal Electrical Insulation Failure
25.63,48.87,14.8,0,71.75,Internal Electrical Insulation Failure
26.03,50.7,15.3,0,75.25,Internal Electrical Insulation Failure
23.3,46.66,16.2,0,73.5,Internal Electrical Insulation Failure
27.23,53.41,16.3,0,70,Internal Electrical Insulation Failure
26.97,50.68,14.6,0,61.25,Internal Electrical Insulation Failure
26.85,50.56,15.6,0,82.25,Internal Electrical Insulation Failure
25.96,50.94,16.8,0,70,Internal Electrical Insulation Failure
25.34,51.56,15.9,0,57.75,Internal Electrical Insulation Failure
26.88,50.77,16.7,0,78.75,Internal Electrical Insulation Failure
23.78,50.2,16,0,17.5,Internal Electrical Insulation Failure
24.82,50.24,15.4,0,43.75,Internal Electrical Insulation Failure
25.98,50.75,14.3,0,70,Internal Electrical Insulation Failure
20.72,52.67,17.1,0,84,Internal Electrical Insulation Failure
25.62,45.59,15,0,63,Internal Electrical Insulation Failure
19.78,50.92,16.1,0,75.25,Internal Electrical Insulation Failure
21.93,49.16,14,0,84,Internal Electrical Insulation Failure
26.26,50.48,16,0,71.75,Internal Electrical Insulation Failure
22.75,53.21,15.1,0,73.5,Internal Electrical Insulation Failure
23.85,50.4,15.7,0,73.5,Internal Electrical Insulation Failure
24.18,53.61,15,0,78.75,Internal Electrical Insulation Failure
25.1,55.07,16.1,0,77,Internal Electrical Insulation Failure
24.69,51.9,14.4,0,78.75,Internal Electrical Insulation Failure
23.22,51.67,16.2,0,84,Internal Electrical Insulation Failure
24.33,50.03,16.2,0,71.75,Internal Electrical Insulation Failure
23.35,52.45,17,0,66.5,Internal Electrical Insulation Failure
23.03,52.53,14.8,0,71.75,Internal Electrical Insulation Failure
23.04,52,13.7,0,84,Internal Electrical Insulation Failure
21.64,51.29,13.5,0,70,Internal Electrical Insulation Failure
23.8,48.47,15.2,0,78.75,Internal Electrical Insulation Failure
22.26,47.52,16.8,0,73.5,Internal Electrical Insulation Failure
25.25,48.35,17.4,0,75.25,Internal Electrical Insulation Failure
24.87,51.22,16.6,0,71.75,Internal Electrical Insulation Failure
24.75,53.39,15.7,0,73.5,Internal Electrical Insulation Failure
21.91,50.68,13.7,0,73.5,Internal Electrical Insulation Failure
23.86,52.81,15.5,0,71.75,Internal Electrical Insulation Failure
22.08,47.84,15.2,0,70,Internal Electrical Insulation Failure
26.07,49.51,16.4,0,63,Internal Electrical Insulation Failure
23.82,49.8,16.6,0,73.5,Internal Electrical Insulation Failure
25.41,51.98,16.1,0,71.75,Internal Electrical Insulation Failure
24.15,48.26,14.8,0,70,Internal Electrical Insulation Failure
28.24,49.53,12.9,0,77,Internal Electrical Insulation Failure
23.29,50.02,14.9,0,78.75,Internal Electrical Insulation Failure
24.33,51.52,16.4,0,70,Internal Electrical Insulation Failure
23.52,50.02,13.6,0,71.75,Internal Electrical Insulation Failure
25.19,53.4,14.1,0,75.25,Internal Electrical Insulation Failure
23.14,48.42,15.1,0,73.5,Internal Electrical Insulation Failure
24.63,47.61,15.5,0,70,Internal Electrical Insulation Failure
24.29,48.87,15.1,0,61.25,Internal Electrical Insulation Failure
24.39,49.82,14.9,0,82.25,Internal Electrical Insulation Failure
24.42,55.77,13.5,0,57.75,Internal Electrical Insulation Failure
21.91,50.24,15.9,0,78.75,Internal Electrical Insulation Failure
23.89,47.57,15.3,0,17.5,Internal Electrical Insulation Failure
25.36,49.73,15.5,0,43.75,Internal Electrical Insulation Failure
25.27,45.25,15.1,0,70,Internal Electrical Insulation Failure
24.39,49.69,13.5,0,84,Internal Electrical Insulation Failure
23.82,53.6,16.8,0,71.75,Internal Electrical Insulation Failure
23.63,54.18,16.1,0,70,Internal Electrical Insulation Failure
27.27,49.86,15.8,0,63,Internal Electrical Insulation Failure
24.93,47.97,15.1,0,75.25,Internal Electrical Insulation Failure
24.93,51.83,17.1,0,84,Internal Electrical Insulation Failure
24.34,51.63,16.8,0,71.75,Internal Electrical Insulation Failure
24.87,50.04,15.3,0,73.5,Internal Electrical Insulation Failure
26.31,53.08,17.4,0,71.75,Internal Electrical Insulation Failure
24.46,51.74,16.2,0,73.5,Internal Electrical Insulation Failure
21.24,51.57,16,0,78.75,Internal Electrical Insulation Failure
23.74,49.87,15,0,77,Internal Electrical Insulation Failure
23.11,53.66,15.7,0,70,Internal Electrical Insulation Failure
23.92,54.29,16.9,0,78.75,Internal Electrical Insulation Failure
26.45,48.89,15.8,0,84,Internal Electrical Insulation Failure
25.86,50.64,14.8,0,71.75,Internal Electrical Insulation Failure
23.56,51.79,14,0,66.5,Internal Electrical Insulation Failure
22.9,50.77,16.3,0,73.5,Internal Electrical Insulation Failure
23.18,47.13,16.2,0,84,Internal Electrical Insulation Failure
24.58,50.68,16.2,0,70,Internal Electrical Insulation Failure
26.24,54.88,16.3,0,73.5,Internal Electrical Insulation Failure
26.2,49.03,15.4,0,75.25,Internal Electrical Insulation Failure
21.98,50.65,14.6,0,73.5,Internal Electrical Insulation Failure
26.69,51.93,13,0,73.5,Internal Electrical Insulation Failure
23.46,49.28,15.8,0,71.75,Internal Electrical Insulation Failure
25.65,50.81,16.3,0,70,Internal Electrical Insulation Failure
23.02,48.17,17,0,63,Internal Electrical Insulation Failure
24.51,49.26,14.9,0,73.5,Internal Electrical Insulation Failure
21.64,49.05,16.9,0,71.75,Internal Electrical Insulation Failure
25.14,53.1,15,0,70,Internal Electrical Insulation Failure
24.4,49.99,16,0,77,Internal Electrical Insulation Failure
23.9,48.75,14.3,0,78.75,Internal Electrical Insulation Failure
25.14,47.39,16.9,0,71.75,Internal Electrical Insulation Failure
24.88,51.47,16.2,0,70,Internal Electrical Insulation Failure
21.53,48.84,16.4,0,75.25,Internal Electrical Insulation Failure
21.69,49.57,16.5,0,73.5,Internal Electrical Insulation Failure
23.72,48.35,15.3,0,70,Internal Electrical Insulation Failure
23.98,52.44,14.6,0,61.25,Internal Electrical Insulation Failure
27.24,53.24,16.3,0,82.25,Internal Electrical Insulation Failure
25,53.26,15.2,0,70,Internal Electrical Insulation Failure
23.96,50.31,15.6,0,57.75,Internal Electrical Insulation Failure
24.39,52.09,16.4,0,78.75,Internal Electrical Insulation Failure
25.13,51.35,14.2,0,17.5,Internal Electrical Insulation Failure
25.53,51.24,15.3,0,43.75,Internal Electrical Insulation Failure
24.37,46.81,17.2,0,70,Internal Electrical Insulation Failure
23.17,50.8,17.5,0,84,Internal Electrical Insulation Failure
20.89,49.37,16.1,0,70,Internal Electrical Insulation Failure
25.59,53,16,0,75.25,Internal Electrical Insulation Failure
26.24,50.7,16.6,0,84,Internal Electrical Insulation Failure
23.86,52.97,15.2,0,71.75,Internal Electrical Insulation Failure
25.25,52.36,16.2,0,73.5,Internal Electrical Insulation Failure
24.55,51.79,16.9,0,71.75,Internal Electrical Insulation Failure
24.46,52.29,15.1,0,73.5,Internal Electrical Insulation Failure
26.12,54.21,17.2,0,78.75,Internal Electrical Insulation Failure
23,51.97,15.9,0,70,Internal Electrical Insulation Failure
23.53,51.49,14.3,0,78.75,Internal Electrical Insulation Failure
23.83,53.25,15.3,0,84,Internal Electrical Insulation Failure
25.87,53.08,17.3,0,71.75,Internal Electrical Insulation Failure
24.31,52.61,15.3,0,66.5,Internal Electrical Insulation Failure
22.1,50.7,15.8,0,73.5,Internal Electrical Insulation Failure
23.08,47.42,18.1,0,71.75,Internal Electrical Insulation Failure
24.47,51.08,15.4,0,84,Internal Electrical Insulation Failure
23.81,49.75,16.5,0,70,Internal Electrical Insulation Failure
23.21,52.41,15.9,0,78.75,Internal Electrical Insulation Failure
24.63,47.5,17.5,0,73.5,Internal Electrical Insulation Failure
25.63,53.61,14.1,0,75.25,Internal Electrical Insulation Failure
24.54,52.21,15.8,0,71.75,Internal Electrical Insulation Failure
21.16,52.56,15.5,0,73.5,Internal Electrical Insulation Failure
23.5,49.51,15.2,0,73.5,Internal Electrical Insulation Failure
22.8,50.43,16.7,0,71.75,Internal Electrical Insulation Failure
25.71,51.86,14.7,0,70,Internal Electrical Insulation Failure
23.33,53.56,17.7,0,63,Internal Electrical Insulation Failure
25.27,53.52,14.4,0,73.5,Internal Electrical Insulation Failure
27.07,49.47,14.1,0,71.75,Internal Electrical Insulation Failure
22.43,51.59,14.8,0,70,Internal Electrical Insulation Failure
23.98,48.7,15.8,0,77,Internal Electrical Insulation Failure
22.48,47.37,16.9,0,78.75,Internal Electrical Insulation Failure
23.22,50.53,15.6,0,71.75,Internal Electrical Insulation Failure
24.75,49.36,16.5,0,70,Internal Electrical Insulation Failure
23.61,50.85,15.7,0,71.75,Internal Electrical Insulation Failure
26.67,53.06,15.4,0,75.25,Internal Electrical Insulation Failure
24.6,53.45,15.7,0,73.5,Internal Electrical Insulation Failure
22.73,51.12,15.2,0,70,Internal Electrical Insulation Failure
22.93,50.66,15.8,0,82.25,Internal Electrical Insulation Failure
26.67,49.96,14.9,0,70,Internal Electrical Insulation Failure
25.52,52.44,15,0,57.75,Internal Electrical Insulation Failure
26.13,50.67,16.1,0,78.75,Internal Electrical Insulation Failure
23.66,52.46,15.9,0,17.5,Internal Electrical Insulation Failure
26.62,49.72,17,0,43.75,Internal Electrical Insulation Failure
24.65,53.28,16.3,0,70,Internal Electrical Insulation Failure
20.96,51.79,13.6,0,71.75,Internal Electrical Insulation Failure
23.98,53.14,15.7,0,70,Internal Electrical Insulation Failure
23.42,49.29,15.9,0,63,Internal Electrical Insulation Failure
26.3,48.57,15.7,0,75.25,Internal Electrical Insulation Failure
26.14,49.99,15.5,0,84,Internal Electrical Insulation Failure
24.53,51.35,14.7,0,71.75,Internal Electrical Insulation Failure
23.59,53.17,16.2,0,73.5,Internal Electrical Insulation Failure
25,48.19,15.2,0,71.75,Internal Electrical Insulation Failure
24.65,55.47,15.5,0,78.75,Internal Electrical Insulation Failure
26.02,54.73,14.4,0,77,Internal Electrical Insulation Failure
26.52,53.23,15.2,0,70,Internal Electrical Insulation Failure
26.97,52.34,15.6,0,78.75,Internal Electrical Insulation Failure
25.3,48.13,14.7,0,84,Internal Electrical Insulation Failure
24.18,51.15,16,0,71.75,Internal Electrical Insulation Failure
23.02,53.57,16.3,0,66.5,Internal Electrical Insulation Failure
24.17,53.65,15.7,0,73.5,Internal Electrical Insulation Failure
22.95,49.88,15.6,0,71.75,Internal Electrical Insulation Failure
26.58,47.18,15.5,0,84,Internal Electrical Insulation Failure
25.18,50.64,18.2,0,70,Internal Electrical Insulation Failure
23.74,51.41,15.8,0,78.75,Internal Electrical Insulation Failure
23.48,52.06,15.5,0,73.5,Internal Electrical Insulation Failure
23.44,55.48,16.7,0,75.25,Internal Electrical Insulation Failure
26.34,54.36,16.3,0,71.75,Internal Electrical Insulation Failure
26.28,53.02,14.9,0,73.5,Internal Electrical Insulation Failure
24.78,46.84,14.6,0,73.5,Internal Electrical Insulation Failure
24.35,51.29,14.5,0,71.75,Internal Electrical Insulation Failure
25.03,53.61,16.6,0,70,Internal Electrical Insulation Failure
26.29,51.52,14.2,0,63,Internal Electrical Insulation Failure
22.82,53.53,15.2,0,73.5,Internal Electrical Insulation Failure
25.56,49.41,16.7,0,71.75,Internal Electrical Insulation Failure
24.06,55.12,13.6,0,70,Internal Electrical Insulation Failure
23.72,50.71,14.2,0,77,Internal Electrical Insulation Failure
23.33,51.59,13.5,0,78.75,Internal Electrical Insulation Failure
25.1,56.19,17.9,0,71.75,Internal Electrical Insulation Failure
24.62,53.64,14.8,0,70,Internal Electrical Insulation Failure
22.15,49.84,16.9,0,71.75,Internal Electrical Insulation Failure
26.08,49.5,14.8,0,75.25,Internal Electrical Insulation Failure
26.63,54.91,15.7,0,73.5,Internal Electrical Insulation Failure
22.73,53.86,16.1,0,70,Internal Electrical Insulation Failure
22.83,50.97,14.6,0,61.25,Internal Electrical Insulation Failure
24.25,52.8,17.5,0,82.25,Internal Electrical Insulation Failure
22.71,51.74,15.1,0,70,Internal Electrical Insulation Failure
23.64,52.82,15.5,0,57.75,Internal Electrical Insulation Failure
23.63,51.66,16.2,0,78.75,Internal Electrical Insulation Failure
24.09,51.26,17.4,0,17.5,Internal Electrical Insulation Failure
24.64,49.81,16.6,0,43.75,Internal Electrical Insulation Failure
22.92,50.34,15.6,0,84,Internal Electrical Insulation Failure
24.8,55.72,16.5,0,71.75,Internal Electrical Insulation Failure
24.39,52.84,16.3,0,70,Internal Electrical Insulation Failure
23.42,52.68,16.2,0,75.25,Internal Electrical Insulation Failure
25.37,50.5,16.9,0,71.75,Internal Electrical Insulation Failure
25.27,53.43,15.5,0,73.5,Internal Electrical Insulation Failure
25.17,51.25,15.8,0,71.75,Internal Electrical Insulation Failure
21.81,49.59,16,0,73.5,Internal Electrical Insulation Failure
25.81,52.9,16.8,0,78.75,Internal Electrical Insulation Failure
25.01,47.07,15.8,0,70,Internal Electrical Insulation Failure
22.79,51.79,13.8,0,78.75,Internal Electrical Insulation Failure
23.06,51.96,17.3,0,84,Internal Electrical Insulation Failure
23.37,47.72,15.5,0,71.75,Internal Electrical Insulation Failure
24.96,49.99,15.2,0,66.5,Internal Electrical Insulation Failure
25.54,51.19,15.7,0,73.5,Internal Electrical Insulation Failure
23.96,53.62,16.6,0,71.75,Internal Electrical Insulation Failure
26.33,52.51,16.5,0,84,Internal Electrical Insulation Failure
27.12,55.75,16.1,0,70,Internal Electrical Insulation Failure
24.44,52.32,14.1,0,78.75,Internal Electrical Insulation Failure
22.99,51.35,15.3,0,73.5,Internal Electrical Insulation Failure
24.5,52.29,15.7,0,75.25,Internal Electrical Insulation Failure
24.69,50.43,14.6,0,71.75,Internal Electrical Insulation Failure
25.91,50.13,15,0,73.5,Internal Electrical Insulation Failure
25.52,50.97,16.1,0,73.5,Internal Electrical Insulation Failure
24.89,54.44,14.9,0,71.75,Internal Electrical Insulation Failure
22.65,49.87,15.3,0,70,Internal Electrical Insulation Failure
25.28,49.18,16.1,0,63,Internal Electrical Insulation Failure
23.94,52.81,17.4,0,73.5,Internal Electrical Insulation Failure
27.42,52.69,16.9,0,71.75,Internal Electrical Insulation Failure
26.03,49.37,17.1,0,70,Internal Electrical Insulation Failure
21.85,53.67,17.8,0,77,Internal Electrical Insulation Failure
26.14,52.72,16.6,0,78.75,Internal Electrical Insulation Failure
25.49,52.1,15.3,0,71.75,Internal Electrical Insulation Failure
22.09,52.43,15.7,0,70,Internal Electrical Insulation Failure
22.89,50.55,15.8,0,71.75,Internal Electrical Insulation Failure
25.44,54.97,15.6,0,75.25,Internal Electrical Insulation Failure
24.28,50.77,16.5,0,70,Internal Electrical Insulation Failure
23.45,52.29,15.9,0,61.25,Internal Electrical Insulation Failure
26.09,52.1,15.2,0,82.25,Internal Electrical Insulation Failure
26.11,50.54,15.6,0,57.75,Internal Electrical Insulation Failure
25.31,52.97,16.8,0,78.75,Internal Electrical Insulation Failure
25.05,51.34,16.1,0,17.5,Internal Electrical Insulation Failure
24.85,53.68,15.1,0,43.75,Internal Electrical Insulation Failure
24.65,51.26,15.3,0,70,Internal Electrical Insulation Failure
25.69,51.91,15.3,0,84,Internal Electrical Insulation Failure
28.27,53.08,16.4,0,71.75,Internal Electrical Insulation Failure
26.1,52.82,15.1,0,70,Internal Electrical Insulation Failure
25.96,50.08,15.4,0,63,Internal Electrical Insulation Failure
21.67,52.23,13.3,0,75.25,Internal Electrical Insulation Failure
24.84,50.29,17.1,0,84,Internal Electrical Insulation Failure
26.45,54.39,15.8,0,71.75,Internal Electrical Insulation Failure
23.95,55.35,16.5,0,73.5,Internal Electrical Insulation Failure
25.24,51.97,16.4,0,71.75,Internal Electrical Insulation Failure
23.3,49.66,15.6,0,73.5,Internal Electrical Insulation Failure
25.94,53.52,16.8,0,78.75,Internal Electrical Insulation Failure
26.12,56.1,16.8,0,77,Internal Electrical Insulation Failure
23.67,52.4,16.6,0,70,Internal Electrical Insulation Failure
25.92,50.16,14.4,0,78.75,Internal Electrical Insulation Failure
22.12,50.18,16.1,0,84,Internal Electrical Insulation Failure
25.77,52.43,16.2,0,71.75,Internal Electrical Insulation Failure
23.13,52.24,15,0,66.5,Internal Electrical Insulation Failure
26.1,56.45,16.4,0,73.5,Internal Electrical Insulation Failure
24.76,51.07,15.7,0,71.75,Internal Electrical Insulation Failure
25.54,52.13,15.4,0,84,Internal Electrical Insulation Failure
24.52,50.6,15.2,0,70,Internal Electrical Insulation Failure
21.08,52.4,17.2,0,78.75,Internal Electrical Insulation Failure
24.39,55.54,14.3,0,73.5,Internal Electrical Insulation Failure
27.22,53.02,16.4,0,75.25,Internal Electrical Insulation Failure
24.8,53.05,16.7,0,71.75,Internal Electrical Insulation Failure
23.8,55.63,15.8,0,73.5,Internal Electrical Insulation Failure
27.7,52.7,15.5,0,73.5,Internal Electrical Insulation Failure
21.44,53.57,16.3,0,71.75,Internal Electrical Insulation Failure
26.39,52.8,16.5,0,70,Internal Electrical Insulation Failure
23.83,53.09,16.4,0,63,Internal Electrical Insulation Failure
25.37,48.65,14.9,0,73.5,Internal Electrical Insulation Failure
26.87,55.32,16.9,0,71.75,Internal Electrical Insulation Failure
22.29,51.37,14.5,0,70,Internal Electrical Insulation Failure
23.63,52.94,16.1,0,77,Internal Electrical Insulation Failure
22.2,53.44,15.8,0,78.75,Internal Electrical Insulation Failure
25.24,49.25,15.3,0,71.75,Internal Electrical Insulation Failure
23.98,50.73,13.8,0,70,Internal Electrical Insulation Failure
21.7,52.65,14.8,0,71.75,Internal Electrical Insulation Failure
24.74,49.71,17.7,0,75.25,Internal Electrical Insulation Failure
24.99,55.26,16.3,0,73.5,Internal Electrical Insulation Failure
24.76,44.31,17.2,0,70,Internal Electrical Insulation Failure
27.24,50.22,17,0,61.25,Internal Electrical Insulation Failure
23.52,55,17.7,0,82.25,Internal Electrical Insulation Failure
24.37,52.33,14.7,0,70,Internal Electrical Insulation Failure
24.66,54.58,16.8,0,57.75,Internal Electrical Insulation Failure
25.48,55.62,14.8,0,78.75,Internal Electrical Insulation Failure
25.66,52.61,16.4,0,17.5,Internal Electrical Insulation Failure
25.97,53.27,14.9,0,43.75,Internal Electrical Insulation Failure
27.62,54.2,16.8,0,70,Internal Electrical Insulation Failure
24.24,55.41,14,0,84,Internal Electrical Insulation Failure
24.68,52.11,15.3,0,71.75,Internal Electrical Insulation Failure
26.02,52.31,17.5,0,70,Internal Electrical Insulation Failure
26.12,51.97,15.9,0,63,Internal Electrical Insulation Failure
23.53,54.54,13.7,0,75.25,Internal Electrical Insulation Failure
22.32,51.94,16.2,0,84,Internal Electrical Insulation Failure
23.25,54.94,14.6,0,71.75,Internal Electrical Insulation Failure
26.86,48.74,17.3,0,73.5,Internal Electrical Insulation Failure
25.88,49.84,16.8,0,71.75,Internal Electrical Insulation Failure
23.34,52.93,15.5,0,73.5,Internal Electrical Insulation Failure
22.41,54.62,13.6,0,77,Internal Electrical Insulation Failure
23.45,53.16,17,0,70,Internal Electrical Insulation Failure
23.59,51,15.9,0,78.75,Internal Electrical Insulation Failure
26.22,54.61,17.9,0,84,Internal Electrical Insulation Failure
26.65,48.82,16.4,0,71.75,Internal Electrical Insulation Failure
24,55.75,14.7,0,66.5,Internal Electrical Insulation Failure
23.65,53.39,13.7,0,73.5,Internal Electrical Insulation Failure
25.01,53.1,16.1,0,71.75,Internal Electrical Insulation Failure
25.17,52.01,15.1,0,84,Internal Electrical Insulation Failure
22.8,50.21,16.8,0,70,Internal Electrical Insulation Failure
25.97,52.42,15.2,0,78.75,Internal Electrical Insulation Failure
26.98,50.1,16.1,0,75.25,Internal Electrical Insulation Failure
25.97,48.16,15.3,0,71.75,Internal Electrical Insulation Failure
23.7,52.51,16.3,0,73.5,Internal Electrical Insulation Failure
23.83,53.76,15.4,0,73.5,Internal Electrical Insulation Failure
23.44,54.99,16.2,0,71.75,Internal Electrical Insulation Failure
22.12,50.89,15.2,0,70,Internal Electrical Insulation Failure
27.18,50.84,16.6,0,63,Internal Electrical Insulation Failure
27.06,51.27,16.5,0,73.5,Internal Electrical Insulation Failure
23.98,52.41,14.2,0,71.75,Internal Electrical Insulation Failure
24.62,51.97,16.4,0,70,Internal Electrical Insulation Failure
27.98,49.82,16.2,0,77,Internal Electrical Insulation Failure
24.57,52.04,14.5,0,78.75,Internal Electrical Insulation Failure
24.09,54.69,13.9,0,71.75,Internal Electrical Insulation Failure
23.46,52.65,15.8,0,70,Internal Electrical Insulation Failure
26.01,53.62,15.1,0,75.25,Internal Electrical Insulation Failure
23.03,54.74,15.6,0,73.5,Internal Electrical Insulation Failure
23.01,55.34,14.6,0,70,Internal Electrical Insulation Failure
25.46,53.55,16.3,0,61.25,Internal Electrical Insulation Failure
26.66,56.7,15.9,0,82.25,Internal Electrical Insulation Failure
24.65,49.19,17.2,0,70,Internal Electrical Insulation Failure
26.71,52.67,17,0,57.75,Internal Electrical Insulation Failure
23.39,51.22,15.9,0,78.75,Internal Electrical Insulation Failure
26.63,54.19,16.9,0,17.5,Internal Electrical Insulation Failure
25.14,53.82,16.7,0,43.75,Internal Electrical Insulation Failure
23.18,52.89,15.7,0,70,Internal Electrical Insulation Failure
23.88,53.25,16.5,0,84,Internal Electrical Insulation Failure
23.07,53.71,15,0,71.75,Internal Electrical Insulation Failure
25.81,56.41,15.8,0,75.25,Internal Electrical Insulation Failure
24.23,52.36,17.1,0,84,Internal Electrical Insulation Failure
26.55,51.77,16.6,0,71.75,Internal Electrical Insulation Failure
25.9,56.91,14.2,0,73.5,Internal Electrical Insulation Failure
25.29,53.57,15.1,0,71.75,Internal Electrical Insulation Failure
24.78,53.68,15.6,0,78.75,Internal Electrical Insulation Failure
24.47,52,16.1,0,77,Internal Electrical Insulation Failure
23.89,51.67,15.9,0,70,Internal Electrical Insulation Failure
24.63,55.07,13.6,0,78.75,Internal Electrical Insulation Failure
27.38,48.49,15.8,0,71.75,Internal Electrical Insulation Failure
27.01,51.14,16.1,0,66.5,Internal Electrical Insulation Failure
23.68,53.3,15.7,0,73.5,Internal Electrical Insulation Failure
22.82,59.48,15.5,0,71.75,Internal Electrical Insulation Failure
25.76,53.38,16,0,84,Internal Electrical Insulation Failure
26.17,56.49,15.6,0,70,Internal Electrical Insulation Failure
24.91,55.77,15.7,0,78.75,Internal Electrical Insulation Failure
25.17,53.09,16.8,0,73.5,Internal Electrical Insulation Failure
24.55,48.49,15.3,0,75.25,Internal Electrical Insulation Failure
26.43,52.09,14.9,0,71.75,Internal Electrical Insulation Failure
22.05,50.84,17.3,0,73.5,Internal Electrical Insulation Failure
22.79,54.62,18.2,0,73.5,Internal Electrical Insulation Failure
27.09,55.94,14.2,0,71.75,Internal Electrical Insulation Failure
25.01,51.5,16.6,0,70,Internal Electrical Insulation Failure
25.03,50.96,15.3,0,63,Internal Electrical Insulation Failure
23.82,53.99,15.7,0,73.5,Internal Electrical Insulation Failure
25.2,49.36,17.7,0,71.75,Internal Electrical Insulation Failure
22.85,56.07,17,0,70,Internal Electrical Insulation Failure
23.92,53.77,15.8,0,77,Internal Electrical Insulation Failure
23.8,53.1,15.6,0,78.75,Internal Electrical Insulation Failure
24.98,48.02,17.1,0,71.75,Internal Electrical Insulation Failure
24.24,53.81,16.5,0,70,Internal Electrical Insulation Failure
23.16,48.73,1.58,1,42,Good
25.17,49.84,1.54,1,48,Good
21.84,46.24,1.51,1,42,Good
23.23,50.87,1.5,1,42,Good
22.33,48.83,1.53,1,41,Good
23.54,49.36,1.52,1,40,Good
21.21,51.21,1.57,1,47,Good
26.25,51.57,1.57,1,40,Good
24.74,52.75,1.72,1,48,Good
25.08,48.84,1.47,1,41,Good
24.56,50.46,1.56,1,42,Good
24.15,53.84,1.45,1,42,Good
24.87,49.22,1.41,1,41,Good
24.62,48.43,1.51,1,42,Good
23.22,48.87,1.75,1,40,Good
25.86,50.36,1.59,1,36,Good
22.44,50.57,1.56,1,48,Good
24.88,46.57,1.72,1,41,Good
23.38,49.63,1.57,1,45,Good
26.85,51.41,1.46,1,43,Good
23.12,51.98,1.35,1,40,Good
26.59,50.98,1.48,1,41,Good
23.03,49.62,1.6,1,40,Good
23,50.64,1.45,1,41,Good
21.22,53.81,1.51,1,40,Good
22.86,51.09,1.69,1,42,Good
23.86,51.64,1.43,1,41,Good
25.77,52.78,1.55,1,40,Good
26.59,53.3,1.46,1,41,Good
24.68,50.51,1.52,1,45,Good
25.62,53.41,1.58,1,41,Good
23.31,48.17,1.43,1,41,Good
21.86,54.39,1.52,1,41,Good
24.13,51.9,1.35,1,36,Good
28.12,55.28,1.57,1,44,Good
24.98,50.7,1.6,1,35,Good
24.32,50.54,1.41,1,48,Good
24.63,50.47,1.54,1,42,Good
26.13,53.49,1.81,1,40,Good
21.76,50.98,1.5,1,36,Good
21.51,51.34,1.58,1,48,Good
23.98,54.31,1.45,1,44,Good
26.14,53.14,1.6,1,42,Good
26.77,51.45,1.76,1,40,Good
22.84,53.87,1.43,1,45,Good
22.97,53.48,1.68,1,42,Good
24.05,54.86,1.63,1,41,Good
24.01,53.57,1.54,1,40,Good
25.6,54.46,1.68,1,36,Good
24.19,52.06,1.5,1,42,Good
24.86,57,1.63,1,48,Good
23.69,54.18,1.6,1,41,Good
25.13,51.83,1.49,1,40,Good
25.17,49.93,1.6,1,33,Good
25.6,52.53,1.6,1,36,Good
23.39,50.36,1.67,1,42,Good
26.42,50.55,1.64,1,48,Good
22.6,53.71,1.57,1,40,Good
24.38,51.84,1.59,1,42,Good
26.46,53.76,1.6,1,44,Good
26.17,51.96,1.56,1,41,Good
22.84,52.31,1.75,1,40,Good
26.19,53.45,1.67,1,45,Good
26.96,49.43,1.8,1,44,Good
23.57,53.67,1.56,1,41,Good
23.38,55.39,1.76,1,40,Good
22.04,53.35,1.51,1,42,Good
22,53.49,1.72,1,43,Good
27.1,53.68,1.7,1,45,Good
27.55,54.3,1.69,1,36,Good
24.56,51.38,1.46,1,33,Good
25.87,54.58,1.65,1,48,Good
26.87,54.27,1.77,1,45,Good
25.83,56.23,1.7,1,10,Good
22.71,51.73,1.8,1,43,Good
24.27,53.58,1.46,1,40,Good
24.69,54.28,1.62,1,41,Good
25.05,55.26,1.69,1,35,Good
24.54,53.15,1.66,1,48,Good
24.49,52.1,1.67,1,38,Good
25.52,55.04,1.67,1,42,Good
23.27,56.2,1.57,1,43,Good
26,56.55,1.68,1,47,Good
24.74,57.22,1.82,1,45,Good
26.02,54.48,1.56,1,48,Good
23.25,51.91,1.73,1,41,Good
26.85,58.4,1.66,1,35,Good
26.17,54.66,1.73,1,44,Good
23.19,57.91,1.6,1,35,Good
28.55,55.43,1.62,1,40,Good
25.64,55.13,1.7,1,41,Good
26.6,55.2,1.77,1,43,Good
25.78,54.08,1.63,1,40,Good
25.28,54.43,1.71,1,45,Good
23.51,61.13,1.75,1,33,Good
26.16,53.45,1.7,1,41,Good
25.19,55.04,1.65,1,41,Good
23.35,55.92,1.82,1,45,Good
25.08,54.13,1.57,1,41,Good
24.9,58.84,1.64,1,40,Good
22.77,60.07,1.67,1,45,Good
25.13,53.79,1.61,1,41,Good
29.14,56.77,1.69,1,25,Good
26.24,52.45,1.48,1,42,Good
24.48,57.23,1.73,1,44,Good
24.95,52.21,1.67,1,41,Good
25.98,57.57,1.56,1,45,Good
25.59,60.43,1.72,1,42,Good
25.64,57.16,1.65,1,40,Good
26.84,53.6,1.79,1,48,Good
27.53,56.46,1.82,1,40,Good
24.51,55.21,1.69,1,42,Good
26.68,56.68,1.66,1,38,Good
24.17,58,1.91,1,42,Good
28.77,55.08,1.6,1,45,Good
23.29,59.88,1.78,1,48,Good
23.59,55.31,1.81,1,42,Good
26.56,54.65,1.58,1,35,Good
26.81,59.21,1.71,1,47,Good
27.05,59.68,1.8,1,42,Good
24.71,55.65,1.73,1,45,Good
25.92,57.45,1.65,1,42,Good
26.8,58.78,1.73,1,44,Good
25.17,60.57,1.76,1,44,Good
25.2,58.55,1.6,1,42,Good
24.09,57.41,1.67,1,41,Good
25.3,61.88,1.8,1,40,Good
28.51,61.08,1.89,1,40,Good
26.7,61.37,1.61,1,42,Good
24.74,61.31,1.82,1,10,Good
26.08,59.3,1.79,1,42,Good
28.12,57.88,1.65,1,25,Good
26.01,59.44,1.8,1,40,Good
27.13,57.12,1.68,1,36,Good
24.98,58.8,1.69,1,42,Good
27.16,57.65,1.84,1,45,Good
26.79,57.83,1.81,1,48,Good
28.77,58.6,1.74,1,41,Good
27.82,56.26,1.84,1,40,Good
26.25,57.9,1.68,1,47,Good
27.87,59.37,1.68,1,40,Good
27.94,53.87,1.85,1,48,Good
27.35,57.36,1.82,1,42,Good
27.59,55.87,1.69,1,42,Good
26.53,58.08,1.81,1,40,Good
26.86,58.49,1.91,1,42,Good
28.78,55.67,1.85,1,47,Good
27.19,59.4,1.66,1,25,Good
26.11,58.91,1.7,1,41,Good
28.79,61.47,1.68,1,40,Good
25.85,54.76,1.8,1,43,Good
27.81,60.05,1.85,1,48,Good
24.44,61.66,1.68,1,45,Good
26.34,59.03,1.93,1,25,Good
23.49,49.19,1.54,0,45,Good
24.05,47.81,1.5,0,41,Good
23.39,50.07,1.53,0,40,Good
25,48.94,1.78,0,41,Good
22.73,48.65,1.49,0,43,Good
24.13,53.81,1.65,0,40,Good
24.83,46.59,1.58,0,35,Good
24.1,48.72,1.47,0,47,Good
24.88,50.91,1.36,0,40,Good
25.28,52.51,1.52,0,33,Good
22.12,49.96,1.49,0,45,Good
23.75,50.33,1.43,0,10,Good
24.93,53.52,1.49,0,25,Good
20.44,50.09,1.66,0,40,Good
25.13,48.93,1.33,0,48,Good
23.97,52.97,1.63,0,41,Good
24.03,51.48,1.42,0,40,Good
21.85,46.18,1.43,0,36,Good
23.52,47.21,1.59,0,43,Good
24.06,47.87,1.58,0,48,Good
24.61,50.4,1.36,0,41,Good
20.42,50.5,1.51,0,42,Good
26.14,51.49,1.58,0,41,Good
21.51,53.57,1.41,0,42,Good
23.04,51.27,1.5,0,45,Good
23.77,48.31,1.43,0,44,Good
24.39,48.59,1.63,0,40,Good
23,52.35,1.57,0,45,Good
26.03,47.9,1.44,0,41,Good
23.12,52.55,1.52,0,38,Good
24.02,55.05,1.4,0,41,Good
23.63,49.98,1.53,0,48,Good
23.7,49.25,1.35,0,40,Good
25.09,49.66,1.44,0,45,Good
24.08,45.59,1.54,0,42,Good
25.67,50.64,1.56,0,43,Good
22.42,55.25,1.59,0,41,Good
21.76,46.75,1.45,0,42,Good
24.14,50.21,1.39,0,42,Good
25.53,48.46,1.55,0,41,Good
22.59,50.5,1.45,0,40,Good
23.26,46.11,1.56,0,36,Good
24.1,48.38,1.54,0,41,Good
22.82,49.25,1.53,0,40,Good
20.14,53.31,1.65,0,44,Good
25.09,48.76,1.46,0,45,Good
23.9,51.16,1.52,0,41,Good
24.75,52.55,1.57,0,43,Good
23.31,51.41,1.45,0,42,Good
27.31,49.48,1.48,0,40,Good
26.32,49.61,1.4,0,35,Good
22.81,50.22,1.65,0,40,Good
25.79,49.04,1.49,0,33,Good
24.49,51.19,1.51,0,45,Good
24.69,48.03,1.48,0,10,Good
22.7,51.78,1.48,0,25,Good
25.34,53.4,1.61,0,40,Good
24.93,53.62,1.59,0,48,Good
25.09,51.58,1.37,0,41,Good
22.41,55.47,1.6,0,40,Good
22.18,51.73,1.54,0,36,Good
25.03,48.96,1.5,0,43,Good
25.15,44.38,1.63,0,48,Good
25.14,50.69,1.49,0,41,Good
24.76,53.66,1.5,0,42,Good
23.63,44.54,1.43,0,41,Good
23.61,54.25,1.53,0,42,Good
23.91,48.53,1.52,0,45,Good
23.71,49.87,1.62,0,44,Good
24.81,52.49,1.54,0,45,Good
25.81,47.77,1.52,0,41,Good
21.45,50.71,1.61,0,38,Good
25.35,49.37,1.46,0,42,Good
24.3,49.75,1.47,0,48,Good
24.93,51.57,1.56,0,40,Good
22.57,48.1,1.56,0,45,Good
27.1,50.24,1.66,0,42,Good
23.28,49.63,1.61,0,43,Good
22.48,51.86,1.67,0,41,Good
22.93,49.96,1.47,0,42,Good
22.91,47.23,1.64,0,41,Good
25.2,51.52,1.63,0,40,Good
21.59,46.69,1.57,0,36,Good
24.27,51.97,1.4,0,41,Good
23.52,48.71,1.63,0,40,Good
22.15,45.87,1.5,0,44,Good
29.27,50.95,1.6,0,45,Good
25.12,48.47,1.56,0,41,Good
28.07,55.27,1.72,0,40,Good
23.39,53.04,1.38,0,43,Good
24.74,50.88,1.56,0,40,Good
20.89,49.35,1.37,0,35,Good
23.38,49.55,1.61,0,47,Good
24.78,50.98,1.47,0,40,Good
23.07,48.28,1.62,0,33,Good
24.42,53.06,1.51,0,45,Good
23.27,48.8,1.55,0,10,Good
25.04,46.28,1.5,0,25,Good
22.91,50.7,1.43,0,40,Good
22.01,51.88,1.5,0,48,Good
23.92,52.76,1.77,0,41,Good
24.48,53.97,1.44,0,43,Good
24.92,48.95,1.51,0,42,Good
21.67,47.9,1.38,0,41,Good
21.9,51.57,1.62,0,42,Good
23.12,49.29,1.41,0,45,Good
25.52,47.18,1.53,0,44,Good
22.32,51.28,1.55,0,40,Good
25.04,55.59,1.5,0,48,Good
22.96,52.14,1.48,0,41,Good
23.58,50.78,1.5,0,38,Good
25.7,53.93,1.39,0,42,Good
25.1,52.88,1.79,0,41,Good
25.21,50.88,1.34,0,48,Good
24.71,52.12,1.56,0,40,Good
20.49,53.58,1.54,0,45,Good
24.38,53.59,1.48,0,42,Good
25.41,52.41,1.49,0,41,Good
24.33,55.44,1.58,0,42,Good
24.48,49.08,1.53,0,42,Good
23.62,51.13,1.63,0,41,Good
22.82,50.34,1.74,0,36,Good
22.29,47.65,1.65,0,42,Good
24.88,51.93,1.48,0,41,Good
27.67,51.79,1.65,0,40,Good
19.19,53.93,1.51,0,44,Good
25.49,48.33,1.6,0,45,Good
24.18,51.68,1.47,0,41,Good
23.12,51.64,1.48,0,40,Good
25.63,48.87,1.48,0,41,Good
26.03,50.7,1.53,0,43,Good
23.3,46.66,1.62,0,42,Good
27.23,53.41,1.63,0,40,Good
26.97,50.68,1.46,0,35,Good
26.85,50.56,1.56,0,47,Good
25.96,50.94,1.68,0,40,Good
25.34,51.56,1.59,0,33,Good
26.88,50.77,1.67,0,45,Good
23.78,50.2,1.6,0,10,Good
24.82,50.24,1.54,0,25,Good
25.98,50.75,1.43,0,40,Good
20.72,52.67,1.71,0,48,Good
25.62,45.59,1.5,0,36,Good
19.78,50.92,1.61,0,43,Good
21.93,49.16,1.4,0,48,Good
26.26,50.48,1.6,0,41,Good
22.75,53.21,1.51,0,42,Good
23.85,50.4,1.57,0,42,Good
24.18,53.61,1.5,0,45,Good
25.1,55.07,1.61,0,44,Good
24.69,51.9,1.44,0,45,Good
23.22,51.67,1.62,0,48,Good
24.33,50.03,1.62,0,41,Good
23.35,52.45,1.7,0,38,Good
23.03,52.53,1.48,0,41,Good
23.04,52,1.37,0,48,Good
21.64,51.29,1.35,0,40,Good
23.8,48.47,1.52,0,45,Good
22.26,47.52,1.68,0,42,Good
25.25,48.35,1.74,0,43,Good
24.87,51.22,1.66,0,41,Good
24.75,53.39,1.57,0,42,Good
21.91,50.68,1.37,0,42,Good
23.86,52.81,1.55,0,41,Good
22.08,47.84,1.52,0,40,Good
26.07,49.51,1.64,0,36,Good
23.82,49.8,1.66,0,42,Good
25.41,51.98,1.61,0,41,Good
24.15,48.26,1.48,0,40,Good
28.24,49.53,1.29,0,44,Good
23.29,50.02,1.49,0,45,Good
24.33,51.52,1.64,0,40,Good
23.52,50.02,1.36,0,41,Good
25.19,53.4,1.41,0,43,Good
23.14,48.42,1.51,0,42,Good
24.63,47.61,1.55,0,40,Good
24.29,48.87,1.51,0,35,Good
24.39,49.82,1.49,0,47,Good
24.42,55.77,1.35,0,33,Good
21.91,50.24,1.59,0,45,Good
23.89,47.57,1.53,0,10,Good
25.36,49.73,1.55,0,25,Good
25.27,45.25,1.51,0,40,Good
24.39,49.69,1.35,0,48,Good
23.82,53.6,1.68,0,41,Good
23.63,54.18,1.61,0,40,Good
27.27,49.86,1.58,0,36,Good
24.93,47.97,1.51,0,43,Good
24.93,51.83,1.71,0,48,Good
24.34,51.63,1.68,0,41,Good
24.87,50.04,1.53,0,42,Good
26.31,53.08,1.74,0,41,Good
24.46,51.74,1.62,0,42,Good
21.24,51.57,1.6,0,45,Good
23.74,49.87,1.5,0,44,Good
23.11,53.66,1.57,0,40,Good
23.92,54.29,1.69,0,45,Good
26.45,48.89,1.58,0,48,Good
25.86,50.64,1.48,0,41,Good
23.56,51.79,1.4,0,38,Good
22.9,50.77,1.63,0,42,Good
23.18,47.13,1.62,0,48,Good
24.58,50.68,1.62,0,40,Good
26.24,54.88,1.63,0,42,Good
26.2,49.03,1.54,0,43,Good
21.98,50.65,1.46,0,42,Good
26.69,51.93,1.3,0,42,Good
23.46,49.28,1.58,0,41,Good
25.65,50.81,1.63,0,40,Good
23.02,48.17,1.7,0,36,Good
24.51,49.26,1.49,0,42,Good
21.64,49.05,1.69,0,41,Good
25.14,53.1,1.5,0,40,Good
24.4,49.99,1.6,0,44,Good
23.9,48.75,1.43,0,45,Good
25.14,47.39,1.69,0,41,Good
24.88,51.47,1.62,0,40,Good
21.53,48.84,1.64,0,43,Good
21.69,49.57,1.65,0,42,Good
23.72,48.35,1.53,0,40,Good
23.98,52.44,1.46,0,35,Good
27.24,53.24,1.63,0,47,Good
25,53.26,1.52,0,40,Good
23.96,50.31,1.56,0,33,Good
24.39,52.09,1.64,0,45,Good
25.13,51.35,1.42,0,10,Good
25.53,51.24,1.53,0,25,Good
24.37,46.81,1.72,0,40,Good
23.17,50.8,1.75,0,48,Good
20.89,49.37,1.61,0,40,Good
25.59,53,1.6,0,43,Good
26.24,50.7,1.66,0,48,Good
23.86,52.97,1.52,0,41,Good
25.25,52.36,1.62,0,42,Good
24.55,51.79,1.69,0,41,Good
24.46,52.29,1.51,0,42,Good
26.12,54.21,1.72,0,45,Good
23,51.97,1.59,0,40,Good
23.53,51.49,1.43,0,45,Good
23.83,53.25,1.53,0,48,Good
25.87,53.08,1.73,0,41,Good
24.31,52.61,1.53,0,38,Good
22.1,50.7,1.58,0,42,Good
23.08,47.42,1.81,0,41,Good
24.47,51.08,1.54,0,48,Good
23.81,49.75,1.65,0,40,Good
23.21,52.41,1.59,0,45,Good
24.63,47.5,1.75,0,42,Good
25.63,53.61,1.41,0,43,Good
24.54,52.21,1.58,0,41,Good
21.16,52.56,1.55,0,42,Good
23.5,49.51,1.52,0,42,Good
22.8,50.43,1.67,0,41,Good
25.71,51.86,1.47,0,40,Good
23.33,53.56,1.77,0,36,Good
25.27,53.52,1.44,0,42,Good
27.07,49.47,1.41,0,41,Good
22.43,51.59,1.48,0,40,Good
23.98,48.7,1.58,0,44,Good
22.48,47.37,1.69,0,45,Good
23.22,50.53,1.56,0,41,Good
24.75,49.36,1.65,0,40,Good
23.61,50.85,1.57,0,41,Good
26.67,53.06,1.54,0,43,Good
24.6,53.45,1.57,0,42,Good
22.73,51.12,1.52,0,40,Good
22.93,50.66,1.58,0,47,Good
26.67,49.96,1.49,0,40,Good
25.52,52.44,1.5,0,33,Good
26.13,50.67,1.61,0,45,Good
23.66,52.46,1.59,0,10,Good
26.62,49.72,1.7,0,25,Good
24.65,53.28,1.63,0,40,Good
20.96,51.79,1.36,0,41,Good
23.98,53.14,1.57,0,40,Good
23.42,49.29,1.59,0,36,Good
26.3,48.57,1.57,0,43,Good
26.14,49.99,1.55,0,48,Good
24.53,51.35,1.47,0,41,Good
23.59,53.17,1.62,0,42,Good
25,48.19,1.52,0,41,Good
24.65,55.47,1.55,0,45,Good
26.02,54.73,1.44,0,44,Good
26.52,53.23,1.52,0,40,Good
26.97,52.34,1.56,0,45,Good
25.3,48.13,1.47,0,48,Good
24.18,51.15,1.6,0,41,Good
23.02,53.57,1.63,0,38,Good
24.17,53.65,1.57,0,42,Good
22.95,49.88,1.56,0,41,Good
26.58,47.18,1.55,0,48,Good
25.18,50.64,1.82,0,40,Good
23.74,51.41,1.58,0,45,Good
23.48,52.06,1.55,0,42,Good
23.44,55.48,1.67,0,43,Good
26.34,54.36,1.63,0,41,Good
26.28,53.02,1.49,0,42,Good
24.78,46.84,1.46,0,42,Good
24.35,51.29,1.45,0,41,Good
25.03,53.61,1.66,0,40,Good
26.29,51.52,1.42,0,36,Good
22.82,53.53,1.52,0,42,Good
25.56,49.41,1.67,0,41,Good
24.06,55.12,1.36,0,40,Good
23.72,50.71,1.42,0,44,Good
23.33,51.59,1.35,0,45,Good
25.1,56.19,1.79,0,41,Good
24.62,53.64,1.48,0,40,Good
22.15,49.84,1.69,0,41,Good
26.08,49.5,1.48,0,43,Good
26.63,54.91,1.57,0,42,Good
22.73,53.86,1.61,0,40,Good
22.83,50.97,1.46,0,35,Good
24.25,52.8,1.75,0,47,Good
22.71,51.74,1.51,0,40,Good
23.64,52.82,1.55,0,33,Good
23.63,51.66,1.62,0,45,Good
24.09,51.26,1.74,0,10,Good
24.64,49.81,1.66,0,25,Good
22.92,50.34,1.56,0,48,Good
24.8,55.72,1.65,0,41,Good
24.39,52.84,1.63,0,40,Good
23.42,52.68,1.62,0,43,Good
25.37,50.5,1.69,0,41,Good
25.27,53.43,1.55,0,42,Good
25.17,51.25,1.58,0,41,Good
21.81,49.59,1.6,0,42,Good
25.81,52.9,1.68,0,45,Good
25.01,47.07,1.58,0,40,Good
22.79,51.79,1.38,0,45,Good
23.06,51.96,1.73,0,48,Good
23.37,47.72,1.55,0,41,Good
24.96,49.99,1.52,0,38,Good
25.54,51.19,1.57,0,42,Good
23.96,53.62,1.66,0,41,Good
26.33,52.51,1.65,0,48,Good
27.12,55.75,1.61,0,40,Good
24.44,52.32,1.41,0,45,Good
22.99,51.35,1.53,0,42,Good
24.5,52.29,1.57,0,43,Good
24.69,50.43,1.46,0,41,Good
25.91,50.13,1.5,0,42,Good
25.52,50.97,1.61,0,42,Good
24.89,54.44,1.49,0,41,Good
22.65,49.87,1.53,0,40,Good
25.28,49.18,1.61,0,36,Good
23.94,52.81,1.74,0,42,Good
27.42,52.69,1.69,0,41,Good
26.03,49.37,1.71,0,40,Good
21.85,53.67,1.78,0,44,Good
26.14,52.72,1.66,0,45,Good
25.49,52.1,1.53,0,41,Good
22.09,52.43,1.57,0,40,Good
22.89,50.55,1.58,0,41,Good
25.44,54.97,1.56,0,43,Good
24.28,50.77,1.65,0,40,Good
23.45,52.29,1.59,0,35,Good
26.09,52.1,1.52,0,47,Good
26.11,50.54,1.56,0,33,Good
25.31,52.97,1.68,0,45,Good
25.05,51.34,1.61,0,10,Good
24.85,53.68,1.51,0,25,Good
24.65,51.26,1.53,0,40,Good
25.69,51.91,1.53,0,48,Good
28.27,53.08,1.64,0,41,Good
26.1,52.82,1.51,0,40,Good
25.96,50.08,1.54,0,36,Good
21.67,52.23,1.33,0,43,Good
24.84,50.29,1.71,0,48,Good
26.45,54.39,1.58,0,41,Good
23.95,55.35,1.65,0,42,Good
25.24,51.97,1.64,0,41,Good
23.3,49.66,1.56,0,42,Good
25.94,53.52,1.68,0,45,Good
26.12,56.1,1.68,0,44,Good
23.67,52.4,1.66,0,40,Good
25.92,50.16,1.44,0,45,Good
22.12,50.18,1.61,0,48,Good
25.77,52.43,1.62,0,41,Good
23.13,52.24,1.5,0,38,Good
26.1,56.45,1.64,0,42,Good
24.76,51.07,1.57,0,41,Good
25.54,52.13,1.54,0,48,Good
24.52,50.6,1.52,0,40,Good
21.08,52.4,1.72,0,45,Good
24.39,55.54,1.43,0,42,Good
27.22,53.02,1.64,0,43,Good
24.8,53.05,1.67,0,41,Good
23.8,55.63,1.58,0,42,Good
27.7,52.7,1.55,0,42,Good
21.44,53.57,1.63,0,41,Good
26.39,52.8,1.65,0,40,Good
23.83,53.09,1.64,0,36,Good
25.37,48.65,1.49,0,42,Good
26.87,55.32,1.69,0,41,Good
22.29,51.37,1.45,0,40,Good
23.63,52.94,1.61,0,44,Good
22.2,53.44,1.58,0,45,Good
25.24,49.25,1.53,0,41,Good
23.98,50.73,1.38,0,40,Good
21.7,52.65,1.48,0,41,Good
24.74,49.71,1.77,0,43,Good
24.99,55.26,1.63,0,42,Good
24.76,44.31,1.72,0,40,Good
27.24,50.22,1.7,0,35,Good
23.52,55,1.77,0,47,Good
24.37,52.33,1.47,0,40,Good
24.66,54.58,1.68,0,33,Good
25.48,55.62,1.48,0,45,Good
25.66,52.61,1.64,0,10,Good
25.97,53.27,1.49,0,25,Good
27.62,54.2,1.68,0,40,Good
24.24,55.41,1.4,0,48,Good
24.68,52.11,1.53,0,41,Good
26.02,52.31,1.75,0,40,Good
26.12,51.97,1.59,0,36,Good
23.53,54.54,1.37,0,43,Good
22.32,51.94,1.62,0,48,Good
23.25,54.94,1.46,0,41,Good
26.86,48.74,1.73,0,42,Good
25.88,49.84,1.68,0,41,Good
23.34,52.93,1.55,0,42,Good
22.41,54.62,1.36,0,44,Good
23.45,53.16,1.7,0,40,Good
23.59,51,1.59,0,45,Good
26.22,54.61,1.79,0,48,Good
26.65,48.82,1.64,0,41,Good
24,55.75,1.47,0,38,Good
23.65,53.39,1.37,0,42,Good
25.01,53.1,1.61,0,41,Good
25.17,52.01,1.51,0,48,Good
22.8,50.21,1.68,0,40,Good
25.97,52.42,1.52,0,45,Good
26.98,50.1,1.61,0,43,Good
25.97,48.16,1.53,0,41,Good
23.7,52.51,1.63,0,42,Good
23.83,53.76,1.54,0,42,Good
23.44,54.99,1.62,0,41,Good
22.12,50.89,1.52,0,40,Good
27.18,50.84,1.66,0,36,Good
27.06,51.27,1.65,0,42,Good
23.98,52.41,1.42,0,41,Good
24.62,51.97,1.64,0,40,Good
27.98,49.82,1.62,0,44,Good
24.57,52.04,1.45,0,45,Good
24.09,54.69,1.39,0,41,Good
23.46,52.65,1.58,0,40,Good
26.01,53.62,1.51,0,43,Good
23.03,54.74,1.56,0,42,Good
23.01,55.34,1.46,0,40,Good
25.46,53.55,1.63,0,35,Good
26.66,56.7,1.59,0,47,Good
24.65,49.19,1.72,0,40,Good
26.71,52.67,1.7,0,33,Good
23.39,51.22,1.59,0,45,Good
26.63,54.19,1.69,0,10,Good
25.14,53.82,1.67,0,25,Good
23.18,52.89,1.57,0,40,Good
23.88,53.25,1.65,0,48,Good
23.07,53.71,1.5,0,41,Good
25.81,56.41,1.58,0,43,Good
24.23,52.36,1.71,0,48,Good
26.55,51.77,1.66,0,41,Good
25.9,56.91,1.42,0,42,Good
25.29,53.57,1.51,0,41,Good
24.78,53.68,1.56,0,45,Good
24.47,52,1.61,0,44,Good
23.89,51.67,1.59,0,40,Good
24.63,55.07,1.36,0,45,Good
27.38,48.49,1.58,0,41,Good
27.01,51.14,1.61,0,38,Good
23.68,53.3,1.57,0,42,Good
22.82,59.48,1.55,0,41,Good
25.76,53.38,1.6,0,48,Good
26.17,56.49,1.56,0,40,Good
24.91,55.77,1.57,0,45,Good
25.17,53.09,1.68,0,42,Good
24.55,48.49,1.53,0,43,Good
26.43,52.09,1.49,0,41,Good
22.05,50.84,1.73,0,42,Good
22.79,54.62,1.82,0,42,Good
27.09,55.94,1.42,0,41,Good
25.01,51.5,1.66,0,40,Good
25.03,50.96,1.53,0,36,Good
23.82,53.99,1.57,0,42,Good
25.2,49.36,1.77,0,41,Good
22.85,56.07,1.7,0,40,Good
23.92,53.77,1.58,0,44,Good
23.8,53.1,1.56,0,45,Good
24.98,48.02,1.71,0,41,Good
24.24,53.81,1.65,0,40,Good
22.71,49.52,1.73,0,43,Good
27.84,52.06,1.52,0,42,Good
25.97,53.98,1.79,0,40,Good
25.66,51.6,1.8,0,35,Good
25.49,50.65,1.65,0,47,Good
23.55,54.77,1.62,0,45,Good
22.72,54.61,1.65,0,10,Good
25.79,51.08,1.58,0,25,Good
25.68,54.01,1.62,0,40,Good
24.41,53.57,1.79,0,48,Good
23.38,52.81,1.47,0,41,Good
23.72,52.3,1.59,0,40,Good
24.73,50.83,1.43,0,43,Good
25.98,56.16,1.64,0,48,Good
26.96,54.04,1.48,0,41,Good
23.7,54.03,1.67,0,42,Good
25.41,54.41,1.6,0,41,Good
26.02,53.54,1.47,0,42,Good
24.59,51.93,1.88,0,45,Good
25.77,51.44,1.56,0,44,Good
27.63,50.98,1.56,0,40,Good
25.05,54.35,1.48,0,45,Good
24.92,53.97,1.5,0,48,Good
30.36,55.05,1.5,0,41,Good
22.18,58.14,1.71,0,38,Good
23.97,52.06,1.62,0,41,Good
23.94,54.04,1.63,0,40,Good
25.21,49.77,1.61,0,45,Good
26.63,54.62,1.66,0,42,Good
25.7,55.87,1.74,0,43,Good
24.54,51.58,1.79,0,41,Good
27.23,53.37,1.65,0,42,Good
23.46,50.1,1.8,0,42,Good
24.76,52.16,1.58,0,41,Good
25.65,56.67,1.66,0,40,Good
24.82,50,1.49,0,36,Good
24.42,52.94,1.5,0,42,Good
26.05,53.4,1.59,0,41,Good
24.75,55.43,1.58,0,40,Good
24.47,50.66,1.46,0,44,Good
26.37,56.19,1.54,0,45,Good
24.72,53.36,1.78,0,41,Good
26.98,50.03,1.42,0,40,Good
24.97,49.35,1.62,0,41,Good
26.36,48.24,1.52,0,43,Good
26.01,53.62,1.59,0,42,Good
24.74,54.5,1.64,0,40,Good
25,52.87,1.88,0,35,Good
25.65,55.47,1.61,0,47,Good
24.65,57.3,1.5,0,40,Good
23.27,50.42,1.71,0,33,Good
24.93,53.27,1.59,0,45,Good
23.18,54.03,1.68,0,10,Good
23.9,54.06,1.63,0,25,Good
24.28,54.1,1.65,0,40,Good
24.91,56.25,1.6,0,48,Good
24.41,51.47,1.53,0,41,Good
24.07,55.86,1.56,0,40,Good
26.01,51.94,1.72,0,36,Good
23.46,49.86,1.5,0,43,Good
26.1,52.75,1.52,0,48,Good
26.41,52.44,1.55,0,41,Good
24.52,53.41,1.69,0,42,Good
23.58,51.82,1.74,0,41,Good
25.88,49.1,1.58,0,42,Good
28.42,53.77,1.68,0,45,Good
25.1,51.23,1.7,0,44,Good
22.64,51.48,1.67,0,45,Good
24.29,54.37,1.74,0,48,Good
25,49.6,1.54,0,41,Good
21.67,52.4,1.54,0,38,Good
22.77,50.39,1.63,0,42,Good
26.88,54.2,1.64,0,41,Good
28.09,49.67,1.73,0,48,Good
26,54.78,1.5,0,40,Good
24.46,54.56,1.89,0,45,Good
24.3,56.14,1.58,0,43,Good
25.46,53.53,1.48,0,41,Good
23.84,53.65,1.51,0,42,Good
25.17,53.77,1.55,0,42,Good
26.21,58.08,1.66,0,41,Good
25.17,50.6,1.63,0,40,Good
25.26,54.15,1.57,0,36,Good
22.94,54.04,1.61,0,42,Good
26.69,54.65,1.76,0,41,Good
27.09,52.66,1.76,0,40,Good
25.6,57.14,1.53,0,45,Good
27.92,52.83,1.73,0,40,Good
22.31,54.15,1.66,0,41,Good
26.39,52.28,1.63,0,43,Good
23.24,50.82,1.62,0,42,Good
24.55,50.82,1.61,0,40,Good
24.59,52.49,1.63,0,35,Good
24.99,50.9,1.54,0,47,Good
23.52,53.85,1.81,0,33,Good
22.7,48.42,1.68,0,45,Good
26.35,46.65,1.68,0,10,Good
21.51,51.68,1.71,0,25,Good
24.54,54.66,1.51,0,40,Good
25.61,52.52,1.41,0,48,Good
23.79,49.11,1.52,0,41,Good
26.69,55.13,1.84,0,40,Good
24.59,53.97,1.51,0,36,Good
23.99,51.98,1.78,0,43,Good
24.32,57.81,1.58,0,48,Good
26.95,51.64,1.77,0,41,Good
26.76,51.5,1.69,0,42,Good
22.72,53.33,1.66,0,41,Good
25.57,55.31,1.8,0,42,Good
25.59,54.34,1.58,0,40,Good
25.39,56.31,1.74,0,45,Good
25.85,52.6,1.55,0,48,Good
24.47,51.2,1.92,0,41,Good
25.63,55.63,1.73,0,38,Good
22.57,48.39,1.51,0,42,Good
25.04,56.66,1.58,0,41,Good
25.67,54.65,1.82,0,48,Good
24.27,52.13,1.46,0,40,Good
23.83,55.21,1.65,0,45,Good
25.92,51.42,1.55,0,42,Good
26.67,53.56,1.59,0,43,Good
25.72,55.15,1.65,0,41,Good
23.6,53.96,1.37,0,42,Good
27.33,49.88,1.49,0,42,Good
24.62,54.12,1.8,0,41,Good
24.15,55.6,1.46,0,40,Good
25.03,51.96,1.73,0,36,Good
27.16,51.93,1.6,0,42,Good
25.17,52.11,1.67,0,41,Good
29.12,51.92,1.58,0,40,Good
24.36,51.51,1.57,0,44,Good
25.29,53.61,1.64,0,45,Good
25.16,51.46,1.72,0,41,Good
26.23,56.22,1.63,0,43,Good
23.75,52.59,1.61,0,40,Good
24.28,53.9,1.65,0,35,Good
27.38,53.77,1.67,0,47,Good
24.41,56.02,1.68,0,40,Good
24.29,53.26,1.57,0,33,Good
25,50.71,1.73,0,45,Good
22.92,53.4,1.77,0,10,Good
25.13,52.83,1.78,0,25,Good
26.28,55.46,1.64,0,40,Good
24.12,51.27,1.59,0,48,Good
23.59,54.7,1.56,0,41,Good
24.44,54.79,1.64,0,40,Good
26.51,53.2,1.62,0,36,Good
24.26,55.62,1.69,0,48,Good
25.97,51.95,1.52,0,41,Good
24.93,53.4,1.55,0,42,Good
25.81,52.31,1.53,0,41,Good
23.15,52.73,1.69,0,42,Good
24.76,52.73,1.63,0,45,Good
25.31,54.83,1.64,0,44,Good
21.47,56.22,1.62,0,40,Good
27.97,51.11,1.76,0,45,Good
25.2,52.58,1.42,0,48,Good
24.07,51.8,1.68,0,41,Good
27.65,52.78,1.81,0,38,Good
25.56,56.57,1.75,0,42,Good
24.76,52.21,1.84,0,41,Good
26.14,51.72,1.69,0,48,Good
23.74,54.24,1.58,0,40,Good
27.98,53.04,1.77,0,42,Good
24.94,51.53,1.59,0,43,Good
27.29,52.9,1.66,0,41,Good
25.23,56.78,1.57,0,42,Good
24.12,52.15,1.58,0,42,Good
24.9,55.19,1.58,0,41,Good
26.78,51.68,1.57,0,40,Good
27.31,54.9,1.49,0,42,Good
22.42,56.1,1.73,0,41,Good
26.7,56.02,1.7,0,40,Good
26.1,50.97,1.66,0,44,Good
25.96,55.58,1.61,0,45,Good
24.5,51.82,1.62,0,41,Good
22.96,49.5,1.76,0,40,Good
25.37,55.17,1.73,0,41,Good
25.27,57.15,1.53,0,43,Good
27.67,52.68,1.57,0,42,Good
26,54.58,1.65,0,40,Good
25.35,53.18,1.78,0,35,Good
24.27,53.31,1.63,0,47,Good
25.79,50.02,1.65,0,40,Good
26.76,54.06,1.54,0,45,Good
23.12,51.74,1.38,0,10,Good
24.82,53.35,1.53,0,25,Good
26.45,51.32,1.77,0,40,Good
24.71,55.07,1.5,0,48,Good
24.39,51.57,1.52,0,41,Good
24.24,56.47,1.78,0,40,Good
25.05,54.09,1.59,0,36,Good
22.87,53.57,1.39,0,43,Good
27.16,55.17,1.56,0,48,Good
26.19,51.31,1.54,0,41,Good
26.48,56,1.52,0,42,Good
24.59,52.69,1.63,0,41,Good
24,54.05,1.55,0,42,Good
25.04,54.58,1.69,0,45,Good
26.75,53.82,1.63,0,44,Good
25.6,54.88,1.56,0,40,Good
25.72,54.82,1.68,0,45,Good
23.99,54.02,1.47,0,41,Good
23.42,56.02,1.63,0,38,Good
23.96,51.55,1.55,0,42,Good
24.56,54.59,1.78,0,41,Good
26.15,52.93,1.55,0,48,Good
23.65,53.82,1.67,0,40,Good
24.82,55.12,1.78,0,45,Good
29.07,55.68,1.66,0,42,Good
23.51,54.93,1.52,0,43,Good
26.1,55.32,1.65,0,41,Good
24.73,54.56,1.45,0,42,Good
24.64,54,1.59,0,42,Good
26.07,55.56,1.5,0,41,Good
24.82,52.34,1.75,0,40,Good
24.45,51.79,1.69,0,36,Good
25.43,52.58,1.69,0,42,Good
25.16,54.3,1.63,0,41,Good
25.15,55.71,1.73,0,40,Good
27.46,53.43,1.6,0,44,Good
25.37,58.7,1.72,0,45,Good
24.98,55.86,1.66,0,41,Good
21.07,57.68,1.7,0,40,Good
27.28,53.55,1.64,0,41,Good
25.26,52.83,1.72,0,43,Good
25.91,56.32,1.62,0,42,Good
25.89,51.72,1.66,0,40,Good
27.2,54.49,1.77,0,35,Good
26.59,53.64,1.74,0,47,Good
26.22,55.13,1.6,0,40,Good
26.18,56.72,1.7,0,33,Good
26.2,53.66,1.56,0,25,Good
24.54,52.7,1.65,0,40,Good
26.44,53.96,1.77,0,48,Good
27.32,56.89,1.7,0,41,Good
22.97,51.89,1.58,0,40,Good
24.86,52.5,1.69,0,36,Good
22.77,54.22,1.52,0,48,Good
23.09,56.21,1.55,0,41,Good
26.43,52.6,1.47,0,42,Good
23.68,58.06,1.63,0,41,Good
26,54.95,1.55,0,42,Good
26.47,52.19,1.59,0,45,Good
23.33,53.44,1.67,0,44,Good
26.39,56.57,1.57,0,45,Good
26.05,53.77,1.83,0,48,Good
24.96,50.64,1.8,0,41,Good
23.97,55.7,1.74,0,38,Good
24.3,55.55,1.63,0,42,Good
25.04,54.3,1.58,0,41,Good
26.07,54.47,1.53,0,48,Good
25.66,58.04,1.42,0,40,Good
26.94,51.06,1.8,0,45,Good
26.77,53.99,1.47,0,42,Good
24.63,53.45,1.84,0,43,Good
24.11,54.59,1.74,0,41,Good
24.12,57.13,1.64,0,42,Good
26.35,56.22,1.78,0,42,Good
26.12,53.41,1.63,0,41,Good
21.63,55.27,1.71,0,40,Good
25.17,52.33,1.64,0,36,Good
25,53.47,1.71,0,42,Good
25.25,55.71,1.67,0,41,Good
24.35,55.8,1.56,0,40,Good
25.69,56.19,1.6,0,44,Good
25.5,52.4,1.54,0,45,Good
25.09,58.38,1.68,0,41,Good
27.62,57.48,1.71,0,40,Good
26.2,55.83,1.5,0,43,Good
26.29,53.92,1.53,0,42,Good
21.12,53.64,1.88,0,40,Good
23.52,55.1,1.62,0,47,Good
24.82,52.75,1.62,0,40,Good
24.09,51.98,1.7,0,33,Good
26.72,53.65,1.8,0,45,Good
23.73,51.92,1.5,0,10,Good
23.04,51.09,1.64,0,25,Good
27.22,54.4,1.56,0,40,Good
25.02,55.79,1.8,0,48,Good
27.63,57.56,1.4,0,41,Good
26.49,53.29,1.5,0,40,Good
22.27,53.66,1.42,0,36,Good
26.25,54.41,1.61,0,43,Good
26.97,55.41,1.8,0,48,Good
25.69,56.23,1.56,0,41,Good
23.09,53.17,1.59,0,42,Good
28.71,51.09,1.95,0,41,Good
24.85,56.17,1.72,0,42,Good
23.09,53.54,1.54,0,45,Good
25.87,55.36,1.74,0,44,Good
23.64,57.39,1.76,0,40,Good
25.64,51.21,1.51,0,45,Good
25.84,54.35,1.65,0,41,Good
27.03,52.01,1.72,0,42,Good
27.01,58.01,1.69,0,41,Good
23.96,54.7,1.7,0,48,Good
26.93,55.49,1.54,0,40,Good
25.1,52.78,1.51,0,45,Good
25.01,56.98,1.44,0,41,Good
24.31,55.48,1.74,0,42,Good
27.28,57.06,1.69,0,42,Good
26.88,55.21,1.56,0,41,Good
24.24,53.35,1.6,0,40,Good
24,52.31,1.62,0,36,Good
25.89,52.08,1.68,0,42,Good
25.77,53.08,1.59,0,41,Good
25.42,52.03,1.68,0,40,Good
23.06,57.71,1.72,0,44,Good
23.46,48.65,1.62,0,45,Good
27.54,52.56,1.63,0,41,Good
22.98,49.86,1.53,0,40,Good
20.82,53.37,1.57,0,41,Good
24.86,58.41,1.77,0,43,Good
28.55,55.88,1.76,0,42,Good
23.96,55.84,1.64,0,40,Good
23.3,54.55,1.57,0,35,Good
27.57,53.55,1.74,0,40,Good
22.39,55.67,1.43,0,33,Good
25.12,53.73,1.67,0,10,Good
25.96,59.39,1.76,0,25,Good
28.98,52.23,1.55,0,40,Good
25.63,55.25,1.54,0,40,Good
25.79,54.98,1.59,0,36,Good
25.89,55.52,1.66,0,43,Good
23.27,53.46,1.54,0,48,Good
25.96,54.72,1.45,0,41,Good
26.29,52.57,1.56,0,42,Good
27.12,53.4,1.55,0,41,Good
24.12,49.96,1.7,0,42,Good
23.95,54.27,1.66,0,45,Good
25.04,55.17,1.77,0,44,Good
27.08,54.34,1.71,0,40,Good
23.96,50.18,1.62,0,45,Good
27.68,53.21,1.68,0,48,Good
26.22,55.53,1.8,0,41,Good
23.74,54.76,1.64,0,38,Good
25.89,53.27,1.46,0,42,Good
26.72,52.8,1.74,0,41,Good
26.11,54.14,1.65,0,48,Good
23.72,55.24,1.7,0,40,Good
25.06,56.52,1.46,0,45,Good
23.6,56.05,1.71,0,42,Good
29,53.27,1.57,0,43,Good
26.43,56.09,1.64,0,41,Good
28.48,56.26,1.84,0,42,Good
24.76,54.38,1.7,0,42,Good
21,51.53,1.78,0,41,Good
26.18,55.67,1.71,0,40,Good
26.3,54.3,1.5,0,36,Good
26.2,56.19,1.6,0,42,Good
24.51,57.48,1.76,0,41,Good
26.11,50.58,1.59,0,40,Good
23.96,53.35,1.58,0,44,Good
25.22,56.49,1.69,0,45,Good
27.52,54.22,1.82,0,41,Good
27,55.98,1.62,0,40,Good
26.7,53.98,1.76,0,41,Good
25.68,54.56,1.81,0,43,Good
24.3,53.08,1.61,0,42,Good
26.04,52.06,1.54,0,40,Good
23.73,57.73,1.59,0,47,Good
26.06,57.87,1.71,0,40,Good
23.04,58.82,1.76,0,33,Good
23.03,52.13,1.7,0,45,Good
25.35,56.84,1.85,0,10,Good
25.84,52.32,1.59,0,25,Good
25.86,55.53,1.68,0,40,Good
25.59,52.31,1.6,0,48,Good
22.91,57.68,1.73,0,41,Good
26.43,50.79,1.76,0,40,Good
25.83,54.05,1.49,0,36,Good
25.64,57.05,1.69,0,43,Good
25.63,54.12,1.8,0,48,Good
22.17,57.54,1.79,0,41,Good
26.04,54.18,1.62,0,42,Good
25.62,56.85,1.55,0,41,Good
24.06,56.07,1.64,0,42,Good
25.42,54.26,1.74,0,45,Good
25.81,53.35,1.67,0,44,Good
27.94,55.81,1.73,0,40,Good
25.42,55.04,1.5,0,45,Good
24.02,48.62,1.58,0,48,Good
24.31,55.42,1.56,0,41,Good
24.58,55.01,1.81,0,38,Good
23.41,53.98,1.68,0,42,Good
24.93,60.69,1.7,0,41,Good
22.97,52.43,1.58,0,48,Good
26.52,57.19,1.65,0,40,Good
25.39,52.61,1.58,0,45,Good
23,54.69,1.7,0,42,Good
25,56.5,1.68,0,43,Good
26.01,54.3,1.6,0,41,Good
24.29,51.36,1.62,0,42,Good
28.26,53.59,1.44,0,42,Good
28.35,56.37,1.72,0,41,Good
26.46,61.17,1.64,0,40,Good
25.87,57.63,1.65,0,36,Good
26.86,58.82,1.43,0,42,Good
27.08,55.1,1.7,0,41,Good
26.05,53.15,1.9,0,40,Good
27.43,56.47,1.47,0,45,Good
22.02,54.8,1.71,0,41,Good
25.83,55.99,1.59,0,40,Good
24.24,53.1,1.59,0,41,Good
26.61,56.47,1.6,0,43,Good
23.66,56.95,1.6,0,42,Good
23.69,50.03,1.66,0,40,Good
25.31,55.01,1.59,0,47,Good
25.41,58.45,1.81,0,40,Good
25.99,54.57,1.64,0,33,Good
26.64,53.75,1.57,0,45,Good
22.4,53.76,1.66,0,10,Good
25.73,52.65,1.74,0,25,Good
27.09,55.79,1.69,0,48,Good
26.78,52.31,1.61,0,41,Good
28.44,55.51,1.67,0,40,Good
24.72,58.56,1.68,0,45,Good
26.1,57.94,1.66,0,41,Good
25.95,57.6,1.67,0,40,Good
25.39,52.84,1.62,0,41,Good
24.38,54.57,1.71,0,43,Good
23.55,53.95,1.69,0,42,Good
24.43,55.76,1.68,0,40,Good
24.89,50.13,1.74,0,35,Good
25.85,56.77,1.64,0,47,Good
25.32,55.78,1.78,0,40,Good
28.46,55.82,1.65,0,33,Good
24.98,52.8,1.76,0,45,Good
25.35,57,1.64,0,10,Good
21.5,53.58,1.8,0,25,Good
27.1,55.11,1.76,0,40,Good
25.76,55.99,1.54,0,48,Good
25.15,53.24,1.54,0,41,Good
23.76,55.27,1.67,0,40,Good
22.14,56.24,1.72,0,36,Good
25.91,51.8,1.56,0,43,Good
27.67,56.35,1.61,0,48,Good
25.83,51.39,1.77,0,41,Good
27.87,53.42,1.6,0,42,Good
27.27,56.29,1.73,0,41,Good
23.74,57.66,1.77,0,42,Good
27.48,57.13,1.69,0,45,Good
27.46,53.18,1.7,0,44,Good
26.52,55.09,1.77,0,40,Good
28.31,54.93,1.59,0,45,Good
28.67,55.7,1.67,0,48,Good
28.76,53.6,1.62,0,38,Good
25.12,55.29,1.72,0,42,Good
26.37,55.32,1.67,0,41,Good
25.68,56.43,1.69,0,48,Good
24.84,54.62,1.77,0,40,Good
25.94,58.69,1.69,0,45,Good
26.49,62.63,1.69,0,42,Good
24.95,54.54,1.57,0,41,Good
22.68,54.99,1.59,0,42,Good
26.84,57.62,1.53,0,42,Good
25.91,53.78,1.75,0,41,Good
27.12,56.59,1.59,0,40,Good
23.93,55.62,1.63,0,36,Good
24.5,52.4,1.72,0,42,Good
26.28,52.31,1.69,0,41,Good
27.79,55.88,1.77,0,40,Good
25.18,57.67,1.67,0,44,Good
23.28,54.16,1.65,0,45,Good
25.35,55.95,1.83,0,41,Good
25.59,59.11,1.75,0,40,Good
27.71,52.2,1.73,0,41,Good
26.57,54.03,1.49,0,43,Good
23.09,55.95,1.7,0,42,Good
24.66,52.97,1.66,0,40,Good
27.34,54.2,1.78,0,35,Good
24.48,57.78,1.52,0,47,Good
23.79,58.12,1.7,0,40,Good
27.31,53.85,1.7,0,33,Good
25.43,55.6,1.74,0,45,Good
24.08,56.33,1.71,0,10,Good
24.66,57.01,1.76,0,25,Good
24.92,52.9,1.66,0,40,Good
25.57,58.29,1.55,0,48,Good
24.84,53.44,1.6,0,41,Good
27.31,56.91,1.63,0,40,Good
26.84,56.07,1.73,0,36,Good
24.69,52.9,1.78,0,43,Good
22.25,54.94,1.55,0,48,Good
22.88,54.49,1.79,0,41,Good
27.52,57.94,1.7,0,42,Good
23.97,54.1,1.75,0,41,Good
29.02,55.97,1.65,0,42,Good
27.72,53.14,1.73,0,45,Good
26.08,53.61,1.71,0,44,Good
26.65,55.48,1.8,0,40,Good
25.59,53.21,1.61,0,45,Good
25.51,53.18,1.72,0,48,Good
26.11,55.79,1.69,0,41,Good
25.14,57.15,1.5,0,38,Good
27.04,54.32,1.71,0,42,Good
23.9,55.21,1.89,0,41,Good
23.08,55.01,1.9,0,48,Good
26.02,57,1.53,0,40,Good
24.8,50.19,1.75,0,45,Good
26.38,55.89,1.53,0,42,Good
24.64,57.71,1.66,0,43,Good
25.05,54.26,1.56,0,41,Good
27.36,52.09,1.7,0,42,Good
22.8,56.83,1.69,0,42,Good
24.66,59.8,1.72,0,41,Good
25.39,52.15,1.56,0,36,Good
26.53,54.07,1.59,0,42,Good
24.06,55.64,1.56,0,41,Good
25.36,51.59,1.69,0,40,Good
25.91,54.77,1.57,0,44,Good
27.71,53.15,1.65,0,41,Good
26.64,51.2,1.71,0,40,Good
28.26,51.77,1.64,0,41,Good
29.4,55.32,1.78,0,43,Good
25.69,54.22,1.67,0,42,Good
24.11,53.21,1.75,0,40,Good
25.21,56.52,1.72,0,35,Good
26.27,53.72,1.58,0,47,Good
25.74,60.01,1.68,0,40,Good
26.87,57.96,1.56,0,45,Good
23.98,52.19,1.43,0,10,Good
25.69,56.05,1.67,0,25,Good
24.42,58.08,1.45,0,40,Good
27.52,53.16,1.64,0,48,Good
25.71,60,1.7,0,41,Good
29.57,56.24,1.66,0,40,Good
24.65,57.86,1.73,0,36,Good
24.71,55.47,1.64,0,43,Good
25.13,52.58,1.68,0,48,Good
24.6,55.91,1.84,0,41,Good
26.44,53.98,1.81,0,42,Good
26.07,55.2,1.65,0,42,Good
24.13,50.22,1.6,0,45,Good
27,54.63,1.7,0,44,Good
25.8,53.33,1.9,0,40,Good
27.44,51.92,1.66,0,45,Good
27.15,57.24,1.84,0,48,Good
24.49,55.94,1.54,0,38,Good
23.17,55.79,1.57,0,42,Good
28.34,53.36,1.65,0,41,Good
23.81,54.05,1.78,0,48,Good
25.09,58.41,1.53,0,40,Good
25.98,54.68,1.62,0,42,Good
25.69,54.9,1.74,0,43,Good
23.97,55.48,1.74,0,42,Good
25.1,56.12,1.74,0,42,Good
26.57,55.04,1.65,0,41,Good
27.22,58.14,1.77,0,36,Good
27.09,56.89,1.66,0,42,Good
25.21,58.28,1.57,0,41,Good
26.92,54.67,1.71,0,40,Good
27.2,54,1.69,0,44,Good
26.51,54.93,1.68,0,40,Good
29.77,59.45,1.6,0,41,Good
25.94,54.24,1.6,0,43,Good
25.06,54.35,1.68,0,42,Good
23.54,56.85,1.78,0,40,Good
25.35,57.15,1.62,0,35,Good
26.47,56.72,1.63,0,47,Good
26.47,57.34,1.64,0,40,Good
25.88,57.35,1.5,0,33,Good
27.4,57.14,1.63,0,45,Good
29.42,56.78,1.7,0,10,Good
22.82,54.04,1.7,0,40,Good
29.64,54.01,1.58,0,48,Good
25.72,57.42,1.62,0,41,Good
24.95,58.88,1.78,0,40,Good
25.44,57.42,1.71,0,36,Good
25.76,55.95,1.64,0,43,Good
25.35,54.91,1.54,0,48,Good
26.36,59.57,1.72,0,41,Good
25.34,55.77,1.59,0,42,Good
27.15,56.4,1.69,0,41,Good
23.68,57.87,1.62,0,42,Good
25.13,52.32,1.64,0,45,Good
27.13,59.26,1.63,0,44,Good
25.35,54.66,1.55,0,40,Good
24.08,58.37,1.82,0,45,Good
27.44,54.8,1.82,0,48,Good
26.03,55.7,1.75,0,41,Good
25.03,57.37,1.66,0,38,Good
23.25,55.68,1.6,0,42,Good
25.57,55.41,1.71,0,41,Good
25.73,57.91,1.78,0,48,Good
25.32,53.08,1.71,0,40,Good
26.13,56.57,1.65,0,45,Good
26.31,54.51,1.68,0,42,Good
23.79,56.69,1.72,0,43,Good
23.58,57.46,1.63,0,41,Good
28.13,57.68,1.73,0,42,Good
28.07,57.08,1.75,0,42,Good
25.88,53.9,1.66,0,41,Good
27.35,58,1.7,0,40,Good
24.47,54.63,1.61,0,36,Good
25.35,57.37,1.52,0,41,Good
27.21,53.98,1.66,0,40,Good
23.96,55.07,1.48,0,45,Good
24.28,53.91,1.51,0,41,Good
25.28,55.03,1.68,0,40,Good
25.57,52.52,1.63,0,41,Good
26.4,55.57,1.65,0,43,Good
27.17,55.28,1.79,0,42,Good
26.45,53.6,1.76,0,40,Good
26.76,54.38,1.61,0,35,Good
26.29,56.59,1.78,0,47,Good
26.69,56.6,1.67,0,40,Good
26.85,57.92,1.64,0,33,Good
24.75,55.7,1.59,0,45,Good
26.33,59.88,1.66,0,10,Good
24.52,55.84,1.8,0,25,Good
24.69,52.18,1.66,0,40,Good
26.21,53.22,1.69,0,48,Good
25.2,55.66,1.73,0,40,Good
27.8,56.79,1.68,0,36,Good
26.81,60.38,1.64,0,43,Good
23.14,57.92,1.8,0,48,Good
22.67,53.74,1.78,0,41,Good
26.93,53.21,1.66,0,42,Good
23.93,55.65,1.56,0,41,Good
26.36,54.9,1.58,0,42,Good
26.5,53.91,1.63,0,44,Good
25.66,56.23,1.67,0,40,Good
27.31,54.11,1.77,0,45,Good
25.72,60.11,1.6,0,48,Good
25.13,57.51,1.57,0,41,Good
27.65,56.32,1.44,0,38,Good
23.22,56.68,1.55,0,41,Good
27.14,58.21,1.64,0,48,Good
23.21,54.22,1.74,0,40,Good
25.7,58.47,1.71,0,45,Good
22.31,56.84,1.64,0,42,Good
23.52,56.45,1.54,0,43,Good
24.36,55.57,1.67,0,41,Good
27.24,55.61,1.78,0,42,Good
26.91,54.17,1.63,0,42,Good
23.63,55.49,1.76,0,41,Good
28.66,55.82,1.77,0,40,Good
22.93,57.27,1.54,0,36,Good
24.82,54.63,1.51,0,42,Good
26.94,55.75,1.73,0,41,Good
28.62,55.62,1.76,0,40,Good
25.81,54.02,1.77,0,44,Good
22.97,55.66,1.72,0,45,Good
26.81,54.87,1.71,0,41,Good
25.66,54.34,1.72,0,41,Good
26.99,56.54,1.73,0,43,Good
25.34,59.14,1.85,0,42,Good
26.89,54.67,1.52,0,40,Good
25.7,53.93,1.83,0,35,Good
27.18,55.13,1.54,0,47,Good
26.9,55.8,1.72,0,40,Good
28.12,55.55,1.57,0,33,Good
26.97,60.14,1.79,0,45,Good
25.57,57.7,1.59,0,10,Good
24.04,55.99,1.82,0,25,Good
26.25,56.74,1.87,0,40,Good
25.16,56.11,1.71,0,48,Good
28.29,54.9,1.8,0,41,Good
26.3,54.43,1.7,0,40,Good
26.47,54.54,1.57,0,36,Good
27.72,55.65,1.55,0,43,Good
25.79,54.53,1.6,0,48,Good
29.61,57.6,1.53,0,41,Good
23.42,55.16,1.64,0,42,Good
24.02,53.46,1.84,0,41,Good
22.57,57.78,1.73,0,42,Good
25.08,56.44,1.76,0,45,Good
26.64,57.66,1.68,0,44,Good
25.93,57.99,1.69,0,40,Good
27.16,58.43,1.82,0,45,Good
26.51,58.19,1.66,0,41,Good
28.04,58.06,1.7,0,38,Good
25.15,56.39,1.8,0,42,Good
27.86,54.09,1.57,0,41,Good
26.05,54.58,1.68,0,48,Good
27.24,56.6,1.64,0,40,Good
25.26,55.6,1.69,0,45,Good
25.91,56.9,1.65,0,42,Good
25.61,53.4,1.78,0,43,Good
25.08,58.74,1.67,0,41,Good
26.38,54.75,1.77,0,42,Good
25.43,55.32,1.89,0,42,Good
29.29,55.95,1.66,0,41,Good
24.75,57.54,1.7,0,40,Good
26.33,55.34,1.72,0,36,Good
25.16,58.2,1.78,0,42,Good
25.07,54.96,1.87,0,41,Good
24.38,60.11,1.85,0,44,Good
29.37,56.15,1.63,0,45,Good
25.81,57.83,1.7,0,41,Good
24.9,56.02,1.56,0,40,Good
26.37,58.49,1.69,0,41,Good
26.77,58.11,1.86,0,43,Good
26.23,55.27,1.78,0,40,Good
26.83,58,1.97,0,35,Good
28.62,53.53,1.73,0,47,Good
26.75,55,1.5,0,40,Good
28.51,54.01,1.76,0,33,Good
26.36,55.69,1.82,0,45,Good
26.97,57.36,1.7,0,10,Good
24.74,58.3,1.61,0,25,Good
24.61,55.38,1.61,0,40,Good
25.6,53.15,1.55,0,48,Good
27.19,56.35,1.67,0,41,Good
26.25,60.48,1.77,0,40,Good
26.87,60.29,1.73,0,36,Good
24.65,55.85,1.7,0,43,Good
28.44,56.13,1.63,0,48,Good
23.79,57.52,1.64,0,41,Good
25.68,61.54,1.56,0,42,Good
26.37,58.14,1.86,0,41,Good
24.64,56.11,1.65,0,42,Good
27.41,58.64,1.63,0,45,Good
26.06,53.25,1.78,0,44,Good
26.84,53.99,1.75,0,40,Good
24.22,58.72,1.59,0,45,Good
25.46,56.18,1.83,0,48,Good
25.81,55.58,1.89,0,41,Good
26.6,57.37,1.49,0,41,Good
26.12,56.76,1.81,0,48,Good
26.76,59.56,1.77,0,40,Good
28.42,54.13,1.69,0,45,Good
26.88,50.88,1.7,0,42,Good
27.85,58.42,1.64,0,43,Good
26.5,56.05,1.73,0,41,Good
24.99,57.26,1.67,0,42,Good
24.77,54.02,1.82,0,42,Good
27.39,58.06,1.71,0,41,Good
27.15,57.93,1.84,0,40,Good
25.42,57.12,1.68,0,36,Good
26.5,55.24,1.63,0,42,Good
25.98,61.2,1.63,0,41,Good
26.68,52.99,1.85,0,40,Good
24.57,54.95,1.7,0,44,Good
26.73,61.54,1.81,0,45,Good
24.82,56.49,1.63,0,41,Good
25.36,54.76,1.71,0,40,Good
26.43,56.64,1.52,0,41,Good
23.4,56.53,1.66,0,43,Good
24.42,57.82,1.68,0,42,Good
28.34,57.85,1.59,0,40,Good
23.85,54.94,1.74,0,35,Good
24.81,58.35,1.59,0,47,Good
26.63,53.16,1.67,0,40,Good
26.18,57.93,1.7,0,33,Good
26.5,54.5,1.7,0,45,Good
26.32,56.59,1.74,0,10,Good
25.98,56.21,1.78,0,25,Good
29.19,57.09,1.71,0,40,Good
21.99,54.47,1.66,0,48,Good
25.84,57.15,1.67,0,41,Good
24.66,58.42,1.67,0,40,Good
25.85,55.09,1.86,0,36,Good
28.42,56.73,1.69,0,43,Good
26.38,60.35,1.64,0,48,Good
25.77,56.28,1.75,0,41,Good
25.1,57.45,1.77,0,42,Good
22.85,57.41,1.6,0,41,Good
23.96,57.15,1.75,0,42,Good
25.35,57.25,1.68,0,44,Good
23.61,55.45,1.82,0,40,Good
27.09,58.54,1.57,0,45,Good
26.74,53.2,1.67,0,41,Good
25.6,58.36,1.8,0,38,Good
23.94,56.63,1.54,0,42,Good
26.05,54.49,1.66,0,41,Good
27.28,58.78,1.78,0,48,Good
27.81,54.12,1.73,0,40,Good
27.77,54.49,1.89,0,45,Good
25.85,54.91,1.64,0,42,Good
24.42,53.25,1.7,0,43,Good
26.09,55.46,1.73,0,41,Good
25.48,58.42,1.67,0,42,Good
25.76,58.89,1.7,0,42,Good
25.25,58.19,1.83,0,41,Good
27.54,55.67,1.58,0,40,Good
24.01,60.71,1.81,0,36,Good
26.86,55.05,1.68,0,42,Good
25.31,56.08,1.83,0,41,Good
28.2,54.23,1.69,0,40,Good
27.37,56.08,1.63,0,44,Good
27.67,55.94,1.81,0,45,Good
26.66,56.46,1.71,0,41,Good
25.1,59.43,1.72,0,40,Good
22.29,58.89,1.79,0,41,Good
27.19,55.58,1.72,0,43,Good
26.67,57.22,1.44,0,40,Good
28.11,57.57,1.66,0,40,Good
26.61,56.98,1.45,0,33,Good
24.18,56.93,1.78,0,45,Good
27.81,58.62,1.56,0,10,Good
29.66,57.15,1.71,0,25,Good
27.24,53.33,1.7,0,40,Good
27.38,57.26,1.77,0,48,Good
27.31,56.28,1.74,0,41,Good
26.73,58.23,1.68,0,40,Good
27.48,54.35,1.81,0,36,Good
26.61,53.01,1.74,0,43,Good
26.02,55.58,1.74,0,48,Good
25.02,60.12,1.55,0,41,Good
25.94,55.55,1.64,0,42,Good
22.3,58.29,1.6,0,41,Good
22.58,55.89,1.62,0,42,Good
24.77,59.93,1.8,0,45,Good
26.19,57.47,1.7,0,44,Good
25.33,58.57,1.72,0,40,Good
28.09,56.65,1.69,0,45,Good
25.96,59.86,1.8,0,48,Good
26.62,57.35,1.77,0,41,Good
24.5,57.57,1.73,0,38,Good
25.67,58.64,1.78,0,42,Good
26.47,59,1.67,0,41,Good
28.21,58.83,1.91,0,48,Good
26.26,56.27,1.67,0,40,Good
26.92,56.26,1.79,0,45,Good
26.94,57.81,1.94,0,42,Good
25.39,57,1.68,0,43,Good
26.22,56.05,1.61,0,41,Good
26.27,57.96,1.83,0,42,Good
25.62,55.51,1.77,0,42,Good
26.19,59.66,1.53,0,41,Good
28.47,54.86,1.69,0,40,Good
27.79,56.81,1.77,0,36,Good
26.48,56.88,1.8,0,42,Good
26.69,58.66,1.72,0,41,Good
27.45,59.66,2.01,0,40,Good
23.88,57.2,1.84,0,44,Good
25.37,56.85,1.91,0,45,Good
28.22,60.36,1.62,0,41,Good
24.12,57.16,1.58,0,40,Good
25.72,56.45,1.5,0,41,Good
26.18,57.11,1.63,0,43,Good
26.58,57.56,1.65,0,40,Good
28.86,59.02,1.73,0,35,Good
26.18,56.1,1.86,0,47,Good
27.63,59.34,1.76,0,40,Good
25.18,57.48,1.82,0,33,Good
28.76,56.28,1.86,0,45,Good
26.85,55.51,1.72,0,10,Good
24.56,51.04,1.66,0,25,Good
26.49,57.21,1.71,0,40,Good
25.87,58.02,1.56,0,48,Good
26.51,53.86,1.72,0,41,Good
25.86,56.45,1.93,0,40,Good
23.85,59.55,1.63,0,36,Good
26.65,53.89,1.62,0,43,Good
26.88,56.29,1.87,0,48,Good
24.37,59.5,1.62,0,41,Good
27.71,56.61,1.87,0,42,Good
26.41,59.82,1.9,0,41,Good
27.11,53.78,1.75,0,42,Good
27.95,61.59,1.61,0,45,Good
27.58,60.98,1.69,0,44,Good
25.49,56.13,1.78,0,40,Good
26.79,57.98,1.77,0,48,Good
26.68,55.85,1.74,0,41,Good
25.27,60.58,1.71,0,38,Good
24.37,58.7,1.81,0,42,Good
28.31,56.12,1.89,0,41,Good
26.29,61.1,1.73,0,48,Good
26.18,55.53,1.69,0,40,Good
26.63,58.49,1.69,0,45,Good
25.83,56.74,1.58,0,42,Good
25.82,59.27,1.71,0,43,Good
26.53,56.69,1.77,0,41,Good
28.03,59.39,1.77,0,42,Good
27.93,56.33,1.63,0,42,Good
25.54,57.54,1.67,0,41,Good
24.4,58.11,1.63,0,40,Good
25.87,59.84,1.65,0,36,Good
24.95,55.4,1.66,0,41,Good
24.71,60.83,1.73,0,40,Good
24.32,58.67,1.79,0,45,Good
28.02,57.87,1.71,0,41,Good
25.25,56.59,1.71,0,40,Good
26.22,61.38,1.91,0,41,Good
24.96,57.91,1.77,0,43,Good
26.52,59.11,1.77,0,42,Good
25.92,57.45,1.85,0,40,Good
25.16,59.23,1.64,0,35,Good
23.74,58.53,1.88,0,47,Good
23.49,59.8,1.64,0,40,Good
25.12,57.02,1.7,0,33,Good
24.93,55.87,1.76,0,45,Good
23.51,59.46,1.81,0,10,Good
25.92,56.45,1.73,0,25,Good
25.85,56.87,1.75,0,40,Good
27.19,56.15,1.86,0,48,Good
27.31,57.24,1.77,0,41,Good
27.15,58.91,1.79,0,40,Good
25.14,55.22,1.67,0,36,Good
27.79,55.57,1.73,0,43,Good
28.01,59.37,1.83,0,48,Good
25.8,56.36,1.76,0,41,Good
24.44,56.77,1.66,0,42,Good
27.35,57.52,1.71,0,41,Good
25.6,58.29,1.57,0,42,Good
24.27,58.06,1.81,0,45,Good
25.42,55.89,1.81,0,44,Good
28.41,56.21,1.69,0,40,Good
25.74,57.32,1.89,0,45,Good
26.69,57.41,1.75,0,48,Good
23.76,58.65,1.84,0,41,Good
25.66,55.99,1.79,0,38,Good
25.42,58.76,1.64,0,42,Good
22.63,54.72,1.8,0,41,Good
27.36,58.36,1.81,0,48,Good
25.1,53.27,1.73,0,40,Good
23.79,54.91,1.85,0,45,Good
25.66,57.73,1.73,0,42,Good
27.22,57.45,1.58,0,43,Good
25.42,60.15,1.59,0,41,Good
27.12,59.19,1.73,0,42,Good
26.83,59.14,1.59,0,42,Good
27.31,58.16,1.78,0,41,Good
22.55,57.7,1.91,0,40,Good
27.92,55.27,1.53,0,36,Good
26.73,59.06,1.8,0,42,Good
24.61,63.19,1.64,0,41,Good
26.84,57.97,1.62,0,40,Good
26.59,56.49,1.7,0,45,Good
27.45,55.32,1.77,0,41,Good
26.66,61.22,1.82,0,40,Good
28.55,58.48,1.67,0,41,Good
24.59,60.23,1.68,0,43,Good
26.65,58.14,1.7,0,42,Good
26.17,61.26,1.7,0,40,Good
26.61,57.23,1.66,0,35,Good
28.04,53.35,1.68,0,47,Good
26.49,58.5,1.67,0,40,Good
25.37,57.52,1.85,0,33,Good
26.77,59.07,1.83,0,45,Good
26.01,59.13,1.81,0,10,Good
25.32,58.42,1.69,0,25,Good
27.77,59.15,1.83,0,40,Good
25.12,58.48,1.85,0,48,Good
27.63,56.34,1.78,0,41,Good
27.2,61.3,1.61,0,40,Good
27.38,58,1.71,0,36,Good
27.33,60.11,1.74,0,43,Good
23.65,56.05,1.83,0,48,Good
23.76,59.08,1.84,0,41,Good
28.19,60.3,1.71,0,42,Good
25.26,60.19,1.72,0,41,Good
25.72,53.62,1.85,0,45,Good
24.4,58.09,1.75,0,44,Good
24.54,58.55,1.76,0,40,Good
27.7,54.1,1.78,0,45,Good
23.81,58.87,1.51,0,48,Good
24.87,58.44,1.91,0,41,Good
25.6,55.26,1.61,0,38,Good
28.85,55.34,1.62,0,42,Good
26.1,55.57,1.79,0,41,Good
28.14,59.64,1.76,0,48,Good
25.46,57.95,1.75,0,40,Good
28.27,54.02,1.72,0,45,Good
28.4,54.64,1.66,0,42,Good
26.95,59.92,1.72,0,43,Good
23.19,60.1,1.79,0,41,Good
26.41,56.96,1.71,0,42,Good
25.44,58.25,1.77,0,42,Good
26.76,57.82,1.6,0,41,Good
28.19,58.62,1.88,0,40,Good
24.69,57.41,1.84,0,36,Good
28.09,56.58,1.73,0,42,Good
26.05,57.68,1.84,0,41,Good
26.64,58.02,1.77,0,40,Good
28.5,57.48,1.9,0,44,Good
24.71,57.81,1.82,0,45,Good
27.5,58.49,1.58,0,40,Good
25.69,58.73,1.7,0,41,Good
28.94,59.3,1.79,0,43,Good
25.49,60.28,1.75,0,42,Good
27.57,55.53,1.82,0,40,Good
26.58,60.27,1.64,0,35,Good
26.47,58.18,1.85,0,47,Good
26.59,55.5,1.87,0,33,Good
28.09,56.63,1.72,0,45,Good
25.49,57.6,1.65,0,10,Good
27.64,60.12,1.46,0,25,Good
27.9,60.78,1.66,0,40,Good
27.89,57.27,1.76,0,48,Good
25.16,57.9,1.56,0,41,Good
28.32,58.9,1.66,0,36,Good
28.42,62.19,1.67,0,43,Good
25.8,55.3,1.74,0,48,Good
28.38,60.88,1.72,0,41,Good
26.49,59.73,1.62,0,42,Good
26.16,61.45,1.76,0,41,Good
25.32,61.59,1.62,0,45,Good
26.07,58.6,1.86,0,44,Good
27.31,59.25,1.71,0,40,Good
27.3,56.66,1.85,0,45,Good
25.37,56.3,1.5,0,48,Good
21.48,58.29,1.74,0,41,Good
27.55,56.01,1.76,0,38,Good
24.48,59.41,1.68,0,42,Good
25.5,53.48,1.75,0,41,Good
26.86,57.96,1.78,0,48,Good
24.75,55.71,1.87,0,40,Good
28.51,61.3,1.7,0,45,Good
24.89,59.67,1.76,0,42,Good
28.36,60.65,1.77,0,43,Good
24.68,58.61,1.77,0,41,Good
29.24,55.89,1.86,0,42,Good
25.89,56.22,1.71,0,42,Good
30.07,58.09,1.58,0,41,Good
26.08,55.28,1.88,0,40,Good
25.69,58.24,1.73,0,36,Good
25.72,58.38,1.9,0,42,Good
27.62,56.33,1.87,0,41,Good
27.83,59.75,1.68,0,40,Good
26.55,58.27,1.75,0,44,Good
26.11,57.11,1.89,0,45,Good
27.18,58.97,1.76,0,41,Good
27.17,57.95,1.8,0,40,Good
25.63,58.21,1.79,0,41,Good
22.44,57.55,1.9,0,43,Good
25.58,60.12,1.92,0,42,Good
26.77,57.73,1.62,0,40,Good
28.03,55.67,1.85,0,35,Good
26.5,59.18,1.71,0,47,Good
28.33,56.09,1.88,0,40,Good
24.59,54.47,1.73,0,33,Good
25.01,57.47,1.76,0,45,Good
28.53,56.56,1.71,0,25,Good
27.11,60.71,1.53,0,40,Good
25.64,59.25,1.59,0,48,Good
28.82,58.12,1.81,0,41,Good
26.47,59.69,1.7,0,40,Good
26.53,59.26,1.85,0,36,Good
26.52,57.39,1.74,0,43,Good
25.71,56.07,1.69,0,48,Good
25.63,58.82,1.59,0,41,Good
25.16,62.2,1.58,0,42,Good
24.23,59.44,1.69,0,41,Good
26.82,58.93,1.78,0,42,Good
27.3,58.22,1.94,0,45,Good
27.14,60.95,1.72,0,44,Good
25.65,58.21,1.86,0,40,Good
27.93,58.38,1.88,0,45,Good
26.5,58.75,1.73,0,48,Good
26.66,59.79,1.56,0,41,Good
25.86,56.24,1.79,0,38,Good
27.54,59.47,1.54,0,42,Good
21.72,57.16,1.8,0,41,Good
27.38,59.82,1.81,0,48,Good
26.9,57.96,1.91,0,40,Good
27.5,58.43,1.84,0,45,Good
30.03,58.6,1.78,0,42,Good
26.41,57.57,1.71,0,43,Good
26.41,54.61,1.81,0,41,Good
25.8,61.01,1.7,0,42,Good
24.11,55.27,1.83,0,41,Good
24.02,59.31,1.72,0,40,Good
26.41,56.32,1.65,0,36,Good
27.19,59.77,1.63,0,42,Good
24.83,61.33,1.71,0,41,Good
27.75,58.49,1.66,0,40,Good
26.57,57.2,1.65,0,44,Good
27.16,60.73,1.93,0,45,Good
27.12,58.59,1.81,0,41,Good
27.93,57.34,1.77,0,40,Good
27.01,56.49,1.88,0,41,Good
26.59,58.52,1.87,0,43,Good
26.97,55.69,1.77,0,42,Good
25.76,58.39,1.72,0,40,Good
27.91,60,1.84,0,35,Good
25.7,57.9,1.56,0,47,Good
27.99,59.79,1.86,0,40,Good
23.23,58.88,1.68,0,33,Good
26.53,60.25,1.74,0,45,Good
25.97,56.2,1.58,0,10,Good
24.36,57.36,1.66,0,40,Good
25.5,59.37,1.72,0,48,Good
26.28,54.94,1.67,0,41,Good
28.45,59.35,1.9,0,43,Good
26.39,58.77,1.89,0,48,Good
29.19,56.37,1.62,0,41,Good
28.41,57.64,1.91,0,41,Good
27.16,57.15,1.73,0,42,Good
23.52,57.19,1.72,0,45,Good
25.93,56.18,1.77,0,44,Good
27.12,56.91,1.56,0,40,Good
25.68,57.33,1.77,0,41,Good
28.19,59.02,1.69,0,38,Good
26.96,58.79,1.63,0,42,Good
26.52,60.54,1.66,0,41,Good
26.04,57.81,1.87,0,48,Good
28.28,60.59,1.78,0,40,Good
25.32,55.63,1.87,0,45,Good
29.82,60.43,1.93,0,42,Good
28.63,57.17,1.76,0,43,Good
27.44,57.91,1.63,0,41,Good
25.72,57.63,1.72,0,42,Good
26.74,57.65,1.88,0,42,Good
25.34,59.14,1.77,0,40,Good
25.76,57.17,1.71,0,36,Good
28.17,58.19,1.61,0,42,Good
26.75,58.03,1.83,0,41,Good
28.59,60.23,1.78,0,40,Good
25.22,61.32,1.76,0,44,Good
27.66,57.23,1.87,0,45,Good
26.23,58.73,1.81,0,41,Good
24.82,61.96,1.75,0,40,Good
24.31,57.94,1.68,0,41,Good
26.45,61.48,1.68,0,43,Good
25.64,56.34,1.66,0,42,Good
28.02,56.73,1.82,0,40,Good
24.93,58.39,1.81,0,35,Good
27.91,58.73,1.69,0,47,Good
23.73,58.76,1.74,0,40,Good
24.42,59.61,1.81,0,33,Good
24.23,55.15,1.71,0,45,Good
27.66,59.39,1.83,0,10,Good
25.6,60.2,1.8,0,25,Good
28.55,55.34,1.75,0,40,Good
23.37,61.36,1.68,0,48,Good
28.3,57.78,1.9,0,41,Good
25.65,59.15,1.88,0,40,Good
25.24,60.46,1.79,0,36,Good
26.84,61.12,1.69,0,43,Good
28.77,59.83,1.76,0,48,Good
27.15,59.36,1.61,0,41,Good
26.25,60.96,1.66,0,42,Good
29.32,57.31,1.69,0,41,Good
26.2,59.18,1.87,0,42,Good
25.67,55.68,1.75,0,45,Good
25.26,56.08,1.92,0,44,Good
24.81,54.7,1.76,0,40,Good
28.09,58,1.63,0,45,Good
30.06,57.83,1.85,0,48,Good
23.78,58.63,1.9,0,41,Good
26.55,57.29,1.79,0,38,Good
27.52,58.89,1.78,0,42,Good
26.13,58.73,1.74,0,41,Good
25.87,57.44,1.71,0,48,Good
27.45,61,1.74,0,40,Good
26.81,58.11,1.62,0,45,Good
28.32,55.73,1.82,0,42,Good
26.69,58.14,1.71,0,43,Good
26.14,62.71,1.56,0,41,Good
28.89,57.66,1.75,0,42,Good
27.48,60.18,1.83,0,42,Good
24.77,54.77,1.9,0,41,Good
27.2,60.66,1.86,0,36,Good
27.46,56.41,1.69,0,42,Good
27.92,58.38,1.74,0,41,Good
24.43,59.47,1.94,0,40,Good
29.51,59.7,1.72,0,44,Good
25.74,60.31,1.77,0,45,Good
25.94,57.35,1.75,0,41,Good
27.44,59.69,1.74,0,40,Good
25.44,61.97,1.9,0,41,Good
25.01,55.4,1.86,0,43,Good
25.96,57.76,1.76,0,42,Good
27.03,60.8,1.68,0,40,Good
28.37,59.43,1.58,0,35,Good
27.04,57.36,1.67,0,40,Good
26.72,57.63,1.75,0,33,Good
26.87,56.95,1.76,0,45,Good
24.39,58.84,1.75,0,10,Good
23.36,58.12,1.71,0,25,Good
27.94,59.53,1.93,0,41,Good
23.82,60.44,1.59,0,40,Good
28.07,56.17,1.79,0,36,Good
25.43,56.01,1.97,0,43,Good
27.02,54.29,1.96,0,48,Good
26.01,59.29,1.87,0,41,Good
23.81,59.55,1.67,0,42,Good
28.84,59.58,1.86,0,41,Good
24.65,59.72,1.68,0,45,Good
23.72,62.9,1.74,0,44,Good
27.29,56.03,1.78,0,40,Good
27.01,58.86,1.7,0,45,Good
26.34,59.6,1.83,0,48,Good
28.68,63.09,1.93,0,41,Good
28.39,62.72,1.78,0,38,Good
26.15,61.21,1.8,0,42,Good
26.79,58.86,1.69,0,41,Good
27.03,62.22,1.73,0,48,Good
28.09,57.59,1.97,0,40,Good
26.39,57.41,1.75,0,45,Good
26.98,58.12,1.79,0,42,Good
27.65,57.36,1.77,0,43,Good
25.77,56.33,1.64,0,41,Good
25.9,57.28,1.85,0,42,Good
26.95,61.73,1.72,0,41,Good
26.87,59.86,1.79,0,40,Good
26.32,60.47,1.86,0,36,Good
26.45,59.84,1.78,0,42,Good
27.32,57.29,1.72,0,41,Good
26.32,56.47,1.63,0,40,Good
26.07,59.98,1.81,0,44,Good
24.77,60.39,1.91,0,45,Good
26.08,59.5,1.64,0,41,Good
27.31,62.57,1.63,0,41,Good
25.92,59.76,1.8,0,43,Good
26.51,60.66,1.76,0,40,Good
29.43,59.29,1.84,0,35,Good
26.44,57.05,1.7,0,40,Good
26.64,60.48,1.78,0,33,Good
27.8,56.29,1.76,0,45,Good
27.03,58.66,1.78,0,10,Good
26.22,62.79,2.01,0,40,Good
26.69,61.39,1.79,0,48,Good
26.26,59.81,1.62,0,40,Good
26.69,60.95,1.7,0,36,Good
25.57,58.63,1.95,0,43,Good
25.2,62.38,1.71,0,48,Good
26.04,60.36,1.54,0,41,Good
27.73,57.46,1.79,0,42,Good
28.4,61.3,1.83,0,41,Good
26.49,63.77,1.82,0,42,Good
26.14,57.09,1.89,0,45,Good
26.66,59.92,1.62,0,44,Good
26.04,60.32,1.73,0,40,Good
25.37,59.37,1.77,0,45,Good
26.18,61.58,1.66,0,48,Good
26.4,56.81,1.7,0,41,Good
27.32,57.26,1.77,0,38,Good
26.85,60.45,1.95,0,42,Good
26.74,57.57,1.64,0,41,Good
27.84,60.2,1.7,0,48,Good
29.42,59.13,1.83,0,40,Good
28.08,57.09,1.81,0,45,Good
26.9,57.51,1.92,0,42,Good
27.15,57.05,1.62,0,43,Good
21.83,61.65,1.65,0,41,Good
25.49,56.56,1.75,0,42,Good
27.14,57.2,1.84,0,42,Good
27.98,59.99,1.75,0,41,Good
27.38,60.02,1.91,0,40,Good
27.79,60.95,1.73,0,36,Good
29.08,59.74,1.75,0,42,Good
29.11,58.69,1.79,0,41,Good
27.36,60.08,1.91,0,40,Good
27.03,62.1,1.63,0,44,Good
27.09,60.68,1.75,0,45,Good
27.89,61.41,1.74,0,41,Good
26.93,61.5,1.74,0,41,Good
25.94,55.98,1.77,0,43,Good
25.43,58.44,1.78,0,42,Good
26.88,60.84,1.69,0,40,Good
25.21,59.31,1.78,0,35,Good
25.79,58.6,1.69,0,47,Good
25.94,60.46,1.63,0,40,Good
25.95,58.81,1.89,0,33,Good
26.14,59.97,1.75,0,45,Good
27.39,63.16,1.8,0,10,Good
27.21,59.99,1.72,0,25,Good
27.13,59.16,1.55,0,40,Good
29.98,55.22,1.87,0,48,Good
26.61,58.95,1.59,0,41,Good
28.95,60.22,1.84,0,40,Good
26.11,60.23,1.75,0,36,Good
25.7,58.16,1.84,0,48,Good
26.52,62.48,1.72,0,41,Good
25.49,61.25,1.7,0,42,Good
26.05,58,1.79,0,41,Good
24.58,58.97,1.75,0,42,Good
27.9,60.64,1.67,0,45,Good
26.51,60.3,1.8,0,44,Good
27.96,59.8,1.96,0,40,Good
25.73,58.02,1.73,0,45,Good
27.48,57.03,1.87,0,41,Good
24.88,57.59,1.93,0,38,Good
27.24,62.16,1.64,0,42,Good
25.39,60.83,1.86,0,41,Good
25.59,59.16,1.77,0,48,Good
27.97,59.78,1.82,0,40,Good
28.21,60.98,1.88,0,45,Good
26.22,55.79,1.88,0,42,Good
28.17,60.35,1.75,0,43,Good
26.33,61.21,1.89,0,41,Good
26.22,59.93,1.65,0,42,Good
29,63.24,1.75,0,42,Good
27.62,58.82,1.96,0,41,Good
27.56,59.65,1.98,0,40,Good
27.17,57.88,1.74,0,36,Good
25.34,59.13,1.97,0,42,Good
25.46,60.32,1.88,0,41,Good
28.77,63.28,1.76,0,40,Good
24.54,57.11,1.76,0,44,Good
22.93,58.56,1.86,0,41,Good
27.62,62.15,1.77,0,40,Good
25.59,59.95,1.71,0,41,Good
26.11,59.58,1.79,0,43,Good
25.59,59.72,1.58,0,42,Good
26.63,54.99,1.81,0,40,Good
27.16,59.54,1.71,0,35,Good
26.76,59.04,2.02,0,47,Good
27.03,59.3,1.71,0,40,Good
27.43,60.65,1.98,0,33,Good
26.95,58.82,1.83,0,45,Good
28.04,60.13,1.86,0,10,Good
24.81,63.18,1.88,0,40,Good
25.42,56.58,1.9,0,48,Good
26.92,59.94,1.57,0,41,Good
28.26,57.36,1.84,0,40,Good
28.14,60.66,1.75,0,36,Good
25.96,60.2,1.87,0,43,Good
25.22,59.61,1.69,0,48,Good
27.1,61.43,1.67,0,41,Good
24.09,60.99,1.9,0,42,Good
26.03,62.08,1.74,0,41,Good
24.29,57.24,1.71,0,42,Good
26.81,59.28,1.89,0,45,Good
25.17,61.79,1.68,0,44,Good
26.75,60.12,1.74,0,40,Good
29.22,58.06,1.82,0,45,Good
29.1,57.16,1.97,0,48,Good
24.8,60.8,1.68,0,41,Good
27,58.15,1.82,0,38,Good
27.27,58.56,1.78,0,42,Good
26.57,54.41,1.78,0,41,Good
27.55,56.67,1.82,0,48,Good
26.93,62.67,1.8,0,40,Good
28.11,60.32,1.68,0,45,Good
26.17,58.52,1.65,0,42,Good
27.42,65.21,1.71,0,43,Good
25.9,57.55,1.76,0,41,Good
27.91,58.57,1.73,0,42,Good
26.29,61.98,1.84,0,42,Good
27.81,60.9,1.8,0,41,Good
26.35,59.29,1.87,0,40,Good
25.45,59.97,1.69,0,36,Good
28.35,63,1.78,0,42,Good
25.13,58.76,1.85,0,41,Good
24.82,59.8,1.79,0,40,Good
26.06,57.87,1.81,0,44,Good
26.7,58.22,1.65,0,45,Good
25.23,60.79,1.69,0,41,Good
26.56,59.69,1.9,0,40,Good
26.28,61.61,1.76,0,41,Good
27.31,62.18,1.76,0,43,Good
28.66,59.3,1.7,0,42,Good
27.98,60.17,1.81,0,40,Good
28.13,61.75,1.73,0,35,Good
27.79,58.03,1.69,0,47,Good
28.43,58.82,1.89,0,40,Good
25.62,59.64,1.73,0,33,Good
26.02,57.39,1.82,0,45,Good
27.03,62.21,1.87,0,10,Good
25.2,60.98,1.79,0,25,Good
29.46,59.05,1.79,0,40,Good
25.96,62.48,1.77,0,48,Good
28.41,58.64,1.78,0,41,Good
25.86,57.98,1.65,0,40,Good
27.33,63.79,1.8,0,37,Good
27.81,61.21,1.89,0,45,Good
30.21,60.83,1.71,0,25,Good
28.47,57.59,1.7,0,41,Good
25.6,54.46,16.8,1,63,Both Electrical and Mechanical Failure
24.19,52.06,15,1,73.5,Both Electrical and Mechanical Failure
24.86,57,16.3,1,84,Both Electrical and Mechanical Failure
23.69,54.18,16,1,71.75,Both Electrical and Mechanical Failure